<?xml version="1.0" standalone="no"?>
<!DOCTYPE svg PUBLIC "-//W3C//DTD SVG 1.1//EN" "http://www.w3.org/Graphics/SVG/1.1/DTD/svg11.dtd" >
<svg xmlns="http://www.w3.org/2000/svg" xmlns:xlink="http://www.w3.org/1999/xlink" version="1.1">
<metadata>
Created by FontForge 20170731 at Tue May 10 22:08:40 2011
 By Aleksey,,,
Copyright (c) Mark Simonson, 2005. All rights reserved.
</metadata>
<defs>
<font id="ProximaNova-Black" horiz-adv-x="573" >
  <font-face 
    font-family="Proxima Nova"
    font-weight="900"
    font-stretch="normal"
    units-per-em="2048"
    panose-1="2 0 5 6 3 0 0 2 0 4"
    ascent="1618"
    descent="-430"
    x-height="989"
    cap-height="1366"
    bbox="-217 -410 2114 1878"
    underline-thickness="40"
    underline-position="-311"
    unicode-range="U+0020-FB04"
  />
<missing-glyph horiz-adv-x="940" 
d="M111 -184v1724h718v-1724h-718zM174 -123h590v1602h-590v-1602z" />
    <glyph glyph-name=".notdef" horiz-adv-x="940" 
d="M111 -184v1724h718v-1724h-718zM174 -123h590v1602h-590v-1602z" />
    <glyph glyph-name=".null" horiz-adv-x="0" 
 />
    <glyph glyph-name="nonmarkingreturn" horiz-adv-x="682" 
 />
    <glyph glyph-name="space" unicode=" " horiz-adv-x="522" 
 />
    <glyph glyph-name="exclam" unicode="!" 
d="M68 1366h438l-51 -858h-332zM72 195q0 90 64.5 154.5t152.5 64.5t152.5 -64.5t64.5 -154.5q0 -88 -64.5 -153t-152.5 -65t-152.5 64.5t-64.5 153.5z" />
    <glyph glyph-name="quotedbl" unicode="&#x22;" horiz-adv-x="960" 
d="M125 1331q55 55 133 55t133 -55t55 -133l-112 -504h-152q-112 453 -112 503q0 79 55 134zM516 1198q0 78 55.5 133t133 55t132 -55t54.5 -133l-113 -504h-149q-113 457 -113 504z" />
    <glyph glyph-name="numbersign" unicode="#" horiz-adv-x="1323" 
d="M25 324l71 223h180l89 270h-179l70 221h184l109 328h260l-109 -328h160l109 328h260l-111 -328h180l-67 -221h-187l-90 -270h187l-70 -223h-192l-107 -324h-260l109 324h-162l-107 -324h-260l109 324h-176zM537 547h157l90 270h-159z" />
    <glyph glyph-name="dollar" unicode="$" horiz-adv-x="1300" 
d="M37 193l215 307q184 -176 440 -176q152 0 152 73q0 35 -79 53.5t-190.5 39t-223 59.5t-190.5 137t-79 248q0 164 120 290t335 154v195h262v-197q252 -35 430 -180l-221 -293q-178 135 -402 135q-104 0 -104 -61q0 -33 77.5 -53.5t189.5 -43t224.5 -61.5t190.5 -133
t78 -235q0 -197 -122 -318t-341 -149v-189h-262v189q-303 29 -500 209z" />
    <glyph glyph-name="percent" unicode="%" horiz-adv-x="1605" 
d="M41 1040q0 147 100.5 246.5t264.5 99.5q166 0 267 -99t101 -247q0 -145 -101 -243.5t-267 -98.5q-164 0 -264.5 98.5t-100.5 243.5zM268 0l873 1366h200l-874 -1366h-199zM291 1040q0 -63 32 -94t83 -31q53 0 85.5 31t32.5 94q0 66 -32.5 97.5t-85.5 31.5
q-51 0 -83 -31.5t-32 -97.5zM834 317q0 147 100 247t264 100t265.5 -99.5t101.5 -247.5q0 -145 -101.5 -243.5t-265.5 -98.5t-264 98.5t-100 243.5zM1081 317q0 -124 117 -124q119 0 119 124q0 66 -33 97.5t-86 31.5q-117 0 -117 -129z" />
    <glyph glyph-name="ampersand" unicode="&#x26;" horiz-adv-x="1335" 
d="M25 387q0 246 286 383q-75 150 -75 276q0 146 121.5 243t314.5 97q166 0 286.5 -84.5t120.5 -224.5q0 -141 -85 -221t-238 -145q43 -61 78 -101l73 -94q68 106 101 217l284 -135q-88 -182 -194 -309l262 -289h-455q-14 14 -63 68q-162 -92 -340 -93q-209 0 -343 106.5
t-134 305.5zM410 424q0 -72 43 -119t104 -47q49 0 96 21q-63 74 -102 124q-49 61 -100 136q-41 -51 -41 -115zM596 1038q0 -57 39 -135q135 66 135 152q0 33 -22.5 54t-57.5 21q-41 0 -67.5 -25.5t-26.5 -66.5z" />
    <glyph glyph-name="quotesingle" unicode="'" horiz-adv-x="516" 
d="M125 1331q55 55 133 55t133 -55t55 -133l-112 -504h-152q-112 453 -112 503q0 79 55 134z" />
    <glyph glyph-name="parenleft" unicode="(" horiz-adv-x="708" 
d="M76 498q0 250 100 506t262 399l234 -178q-109 -178 -155 -348t-46 -379q0 -207 46 -378t155 -345l-234 -183q-162 143 -262 399.5t-100 506.5z" />
    <glyph glyph-name="parenright" unicode=")" horiz-adv-x="710" 
d="M37 -225l233 -183q162 143 262.5 399.5t100.5 506.5t-100.5 506t-262.5 399l-233 -178q109 -178 155 -348t46 -379q0 -207 -46 -378t-155 -345z" />
    <glyph glyph-name="asterisk" unicode="*" horiz-adv-x="743" 
d="M35 946l188 98l-188 99l82 143l180 -115l-8 215h166l-11 -215l181 115l84 -143l-191 -99l191 -98l-84 -143l-181 115l11 -216h-166l8 216l-180 -115z" />
    <glyph glyph-name="plus" unicode="+" horiz-adv-x="1044" 
d="M59 584v215h344v379h238v-379h344v-215h-344v-396h-238v396h-344z" />
    <glyph glyph-name="comma" unicode="," horiz-adv-x="575" 
d="M70 199q0 88 63.5 151.5t149.5 63.5q98 0 167.5 -71.5t69.5 -192.5q0 -270 -256 -451l-149 121q51 23 109.5 82t76.5 114q-20 -8 -53 -8q-76 0 -127 53.5t-51 137.5z" />
    <glyph glyph-name="hyphen" unicode="-" horiz-adv-x="614" 
d="M61 342v307h492v-307h-492z" />
    <glyph glyph-name="period" unicode="." horiz-adv-x="579" 
d="M70 194.5q0 88.5 65.5 154t153.5 65.5t153.5 -65.5t65.5 -154t-65.5 -154t-153.5 -65.5t-153.5 65.5t-65.5 154z" />
    <glyph glyph-name="slash" unicode="/" horiz-adv-x="741" 
d="M0 -41l485 1448h256l-485 -1448h-256z" />
    <glyph glyph-name="zero" unicode="0" horiz-adv-x="1286" 
d="M37 682q0 297 157.5 500.5t448.5 203.5t448.5 -203.5t157.5 -500.5q0 -190 -64.5 -347t-204.5 -258.5t-337 -101.5t-337 101.5t-204.5 258.5t-64.5 347zM453 682q0 -342 190.5 -342t190.5 342q0 340 -190.5 340t-190.5 -340z" />
    <glyph glyph-name="one" unicode="1" horiz-adv-x="989" 
d="M0 854l522 512h357v-1366h-414v840l-232 -230z" />
    <glyph glyph-name="two" unicode="2" horiz-adv-x="1255" 
d="M25 1155q111 119 265 175t312 56q264 0 425 -132t161 -339q0 -143 -96.5 -270t-335.5 -285h444v-360h-1116v322l375 266q119 86 198.5 155.5t95 100t15.5 71.5q0 47 -45 77t-113 30q-193 0 -360 -141z" />
    <glyph glyph-name="three" unicode="3" horiz-adv-x="1263" 
d="M25 188l202 283q74 -63 178.5 -97t192.5 -34q96 0 147.5 26.5t51.5 65.5t-42 56.5t-169 17.5q-158 0 -199 -4v366q27 -2 199 -2q188 0 188 68q0 88 -203 88q-190 0 -333 -119l-195 258q205 225 573 225q276 0 423 -102t147 -276q0 -109 -85 -196t-216 -107
q125 -14 224 -100.5t99 -219.5q0 -182 -164 -296t-430 -114q-195 0 -347 58.5t-242 154.5z" />
    <glyph glyph-name="four" unicode="4" horiz-adv-x="1302" 
d="M37 219v318l498 829h573v-786h158v-361h-158v-219h-414v219h-657zM436 580h258v430z" />
    <glyph glyph-name="five" unicode="5" horiz-adv-x="1282" 
d="M66 168l221 291q143 -119 346 -119q96 0 144 33t48 80q0 49 -45 80.5t-135 31.5q-154 0 -254 -94l-285 66v829h1045v-360h-631v-193q109 104 285 105q182 0 311 -124t129 -323q0 -227 -161.5 -361.5t-446.5 -134.5q-358 0 -571 193z" />
    <glyph glyph-name="six" unicode="6" horiz-adv-x="1280" 
d="M37 680q0 336 195.5 521t521.5 185q252 0 426 -118l-174 -320q-104 74 -252 74q-115 0 -207 -61.5t-92 -176.5v-4q109 139 317 140q197 0 340 -122t143 -331q0 -219 -160.5 -355.5t-406.5 -136.5q-322 0 -486.5 195t-164.5 510zM453 514q6 -76 57.5 -125t151.5 -49
q76 0 125 33t49 78q0 59 -58.5 88.5t-132.5 29.5q-121 0 -192 -55z" />
    <glyph glyph-name="seven" unicode="7" horiz-adv-x="1177" 
d="M37 1006v360h1116v-287l-455 -1079h-452l432 1006h-641z" />
    <glyph glyph-name="eight" unicode="8" horiz-adv-x="1290" 
d="M37 365q0 109 70.5 199.5t189.5 140.5q-238 98 -238 315q0 127 91.5 213t217.5 119.5t277.5 33.5t277.5 -33.5t217 -119.5t91 -213q0 -217 -240 -315q119 -49 190.5 -140.5t71.5 -199.5q0 -133 -91 -223.5t-223 -128.5t-294 -38t-294 38t-223 128t-91 224zM457 412
q0 -45 51 -73t137 -28q84 0 136.5 28t52.5 73q0 37 -58.5 66.5t-130.5 39.5q-74 -10 -131 -39.5t-57 -66.5zM479 958q0 -31 50 -57.5t116 -36.5q66 10 115 37t49 57q0 41 -44 67t-120 26q-78 0 -122 -26t-44 -67z" />
    <glyph glyph-name="nine" unicode="9" horiz-adv-x="1280" 
d="M25 897q0 219 160.5 355.5t406.5 136.5q322 0 486.5 -195t164.5 -510q0 -336 -195.5 -521.5t-521.5 -185.5q-252 0 -426 119l174 320q104 -74 252 -74q129 0 214 67.5t85 168.5v6q-109 -139 -317 -140q-197 0 -340 122t-143 331zM444 913q0 -59 58.5 -88.5t132.5 -29.5
q121 0 192 55q-6 76 -57 125t-154 49q-74 0 -123 -33t-49 -78z" />
    <glyph glyph-name="colon" unicode=":" horiz-adv-x="544" 
d="M70 194.5q0 88.5 65.5 154t153.5 65.5t153.5 -65.5t65.5 -154t-65.5 -154t-153.5 -65.5t-153.5 65.5t-65.5 154zM70 784q0 88 65.5 154t153.5 66t153.5 -66t65.5 -154t-65.5 -153.5t-153.5 -65.5t-153.5 65.5t-65.5 153.5z" />
    <glyph glyph-name="semicolon" unicode=";" horiz-adv-x="575" 
d="M70 786q0 88 64.5 153t154.5 65t154.5 -65t64.5 -153q0 -90 -65.5 -155.5t-153.5 -65.5t-153.5 65.5t-65.5 155.5zM70 211q0 88 63.5 151.5t149.5 63.5q98 0 167.5 -71.5t69.5 -192.5q0 -270 -256 -451l-149 121q51 23 109.5 82t76.5 115q-20 -8 -53 -9q-76 0 -127 53.5
t-51 137.5z" />
    <glyph glyph-name="less" unicode="&#x3c;" horiz-adv-x="1044" 
d="M59 553v266l926 369v-256l-684 -248l684 -244v-256z" />
    <glyph glyph-name="equal" unicode="=" horiz-adv-x="1044" 
d="M59 389v215h926v-215h-926zM59 764v215h926v-215h-926z" />
    <glyph glyph-name="greater" unicode="&#x3e;" horiz-adv-x="1044" 
d="M59 184v256l684 244l-684 248v256l926 -369v-266z" />
    <glyph glyph-name="question" unicode="?" horiz-adv-x="921" 
d="M0 1200q86 92 208 139t247 47q207 0 328.5 -89t121.5 -240q0 -80 -29.5 -143.5t-72.5 -100.5t-86 -68.5t-73 -65.5t-30 -71q0 -49 23 -76l-324 -73q-55 76 -55 194q0 76 36 135.5t79 88t78.5 55t35.5 47.5q0 43 -79 43q-96 0 -179 -86zM248 194.5q0 88.5 64.5 154
t154.5 65.5t154.5 -65.5t64.5 -154t-64.5 -154t-154.5 -65.5t-154.5 65.5t-64.5 154z" />
    <glyph glyph-name="at" unicode="@" horiz-adv-x="1603" 
d="M72 500q0 322 245.5 564.5t567.5 242.5q289 0 467 -176.5t178 -428.5q0 -131 -45 -236.5t-115 -166.5t-146.5 -93t-150.5 -32q-172 0 -211 135l-4 15q-104 -150 -264 -150q-150 0 -236 100.5t-86 255.5q0 195 134.5 341.5t310.5 146.5q172 0 250 -115l18 90h324l-95 -444
q-6 -31 -6 -55q0 -78 58 -78q66 0 113.5 76.5t47.5 209.5q0 236 -147 375.5t-403 139.5q-287 0 -500 -213t-213 -498q0 -240 161.5 -400.5t405.5 -160.5q190 0 367 110l49 -69q-201 -129 -426 -129q-279 0 -464 185t-185 458zM604 559q0 -59 35 -95t94 -36q86 0 152 84
l39 195q-39 57 -119 57q-90 0 -145.5 -61.5t-55.5 -143.5z" />
    <glyph glyph-name="A" unicode="A" horiz-adv-x="1454" 
d="M-37 0l504 1366h520l504 -1366h-469l-49 160h-492l-49 -160h-469zM592 520h270l-135 441z" />
    <glyph glyph-name="B" unicode="B" horiz-adv-x="1427" 
d="M111 0v1366h829q197 0 301.5 -106.5t104.5 -241.5q0 -125 -66 -208t-168 -105q113 -16 186.5 -109.5t73.5 -224.5q0 -154 -104 -262.5t-299 -108.5h-858zM524 344h332q45 0 70.5 23.5t25.5 62.5q0 37 -26.5 62.5t-69.5 25.5h-332v-174zM524 862h320q33 0 57.5 23.5
t24.5 58.5t-24.5 56.5t-57.5 21.5h-320v-160z" />
    <glyph glyph-name="C" unicode="C" horiz-adv-x="1427" 
d="M37 682q0 313 213 510t538 197q246 0 396.5 -115t224.5 -283l-356 -166q-27 82 -100.5 140.5t-164.5 58.5q-147 0 -239 -98.5t-92 -243.5t92 -243.5t239 -98.5q90 0 164 58.5t101 140.5l356 -164q-33 -76 -82 -140.5t-123 -126t-181.5 -97.5t-234.5 -36
q-324 0 -537.5 198t-213.5 509z" />
    <glyph glyph-name="D" unicode="D" horiz-adv-x="1507" 
d="M111 0v1366h610q332 0 540.5 -181t208.5 -500.5t-208.5 -502t-538.5 -182.5h-612zM524 360h197q150 0 240 94.5t90 229.5q0 145 -84 233.5t-244 88.5h-199v-646z" />
    <glyph glyph-name="E" unicode="E" horiz-adv-x="1220" 
d="M111 0v1366h1036v-360h-623v-136h609v-360h-609v-150h623v-360h-1036z" />
    <glyph glyph-name="F" unicode="F" horiz-adv-x="1212" 
d="M111 0v1366h1036v-360h-623v-136h609v-360h-609v-510h-413z" />
    <glyph glyph-name="G" unicode="G" horiz-adv-x="1486" 
d="M37 681.5q0 319.5 216 513.5t535 194q225 0 376 -102.5t225 -254.5l-349 -178q-33 70 -99.5 120t-152.5 50q-147 0 -239 -98.5t-92 -243.5t92 -243.5t239 -98.5q57 0 119 18.5t94 42.5v50h-253v360h665v-559q-250 -277 -625 -277q-319 0 -535 193.5t-216 513z" />
    <glyph glyph-name="H" unicode="H" horiz-adv-x="1538" 
d="M111 0v1366h413v-483h490v483h413v-1366h-413v522h-490v-522h-413z" />
    <glyph glyph-name="I" unicode="I" horiz-adv-x="634" 
d="M111 0v1366h413v-1366h-413z" />
    <glyph glyph-name="J" unicode="J" horiz-adv-x="1019" 
d="M0 86l168 315q90 -61 176 -61q68 0 110 41t42 113v872h413v-879q0 -256 -141 -384t-387 -128q-238 0 -381 111z" />
    <glyph glyph-name="K" unicode="K" horiz-adv-x="1374" 
d="M111 0v1366h413v-512l359 512h506l-517 -635l539 -731h-504l-307 481l-76 -102v-379h-413z" />
    <glyph glyph-name="L" unicode="L" horiz-adv-x="1097" 
d="M111 0v1366h413v-1006h518v-360h-931z" />
    <glyph glyph-name="M" unicode="M" horiz-adv-x="1843" 
d="M111 0v1366h571l240 -655l239 655h572v-1366h-414v821l-305 -821h-185l-305 821v-821h-413z" />
    <glyph glyph-name="N" unicode="N" horiz-adv-x="1536" 
d="M111 0v1366h426l475 -647v647h413v-1366h-397l-504 692v-692h-413z" />
    <glyph glyph-name="O" unicode="O" horiz-adv-x="1568" 
d="M37 682q0 311 214 509t533.5 198t533.5 -198t214 -509t-214 -509t-533.5 -198t-533.5 198t-214 509zM457 682q0 -145 91 -243.5t236.5 -98.5t236.5 98.5t91 243.5t-91 243.5t-236.5 98.5t-236.5 -98.5t-91 -243.5z" />
    <glyph glyph-name="P" unicode="P" horiz-adv-x="1355" 
d="M111 0v1366h729q231 0 361 -134t130 -335q0 -199 -130 -333t-361 -134h-316v-430h-413zM524 791h262q55 0 90 27.5t35 78.5q0 53 -34.5 81t-90.5 28h-262v-215z" />
    <glyph glyph-name="Q" unicode="Q" horiz-adv-x="1568" 
d="M37 682q0 311 214 509t533.5 198t533.5 -198t214 -509q0 -272 -170 -463l74 -92l-287 -229l-96 118q-130 -41 -269 -41q-319 0 -533 198t-214 509zM457 682q0 -145 91 -243.5t236 -98.5h13l-95 119l287 229l103 -131q20 55 20 125q0 145 -91 243.5t-236.5 98.5
t-236.5 -98.5t-91 -243.5z" />
    <glyph glyph-name="R" unicode="R" horiz-adv-x="1388" 
d="M111 0v1366h729q231 0 361 -134t130 -335q0 -160 -72.5 -262.5t-173.5 -151.5l248 -483h-471l-188 430h-150v-430h-413zM524 791h252q57 0 96 27.5t39 80.5q0 51 -38.5 79t-96.5 28h-252v-215z" />
    <glyph glyph-name="S" unicode="S" horiz-adv-x="1255" 
d="M6 193l215 307q184 -176 441 -176q151 0 151 72q0 36 -79 54.5t-190.5 39t-223 59.5t-190.5 137t-79 248q0 186 150.5 319t416.5 133q346 0 580 -190l-221 -293q-178 135 -402 135q-104 0 -104 -61q0 -33 78 -53.5t189.5 -43t224 -61.5t190.5 -133t78 -235
q0 -225 -157 -350.5t-433 -125.5q-393 0 -635 218z" />
    <glyph glyph-name="T" unicode="T" horiz-adv-x="1218" 
d="M37 1006v360h1145v-360h-365v-1006h-414v1006h-366z" />
    <glyph glyph-name="U" unicode="U" horiz-adv-x="1570" 
d="M111 561v805h419v-791q0 -102 67 -168.5t189 -66.5q121 0 187.5 66.5t66.5 168.5v791h420v-803q0 -266 -170 -427t-503.5 -161t-504.5 161t-171 425z" />
    <glyph glyph-name="V" unicode="V" horiz-adv-x="1454" 
d="M-37 1366h469l295 -920l295 920h469l-504 -1366h-520z" />
    <glyph glyph-name="W" unicode="W" horiz-adv-x="1953" 
d="M-25 1366h463l176 -836l207 836h312l206 -836l174 836h465l-391 -1366h-434l-176 774l-176 -774h-434z" />
    <glyph glyph-name="X" unicode="X" horiz-adv-x="1400" 
d="M-37 0l457 700l-426 666h485l221 -389l218 389h489l-426 -664l457 -702h-488l-250 418l-249 -418h-488z" />
    <glyph glyph-name="Y" unicode="Y" horiz-adv-x="1359" 
d="M-37 1366h465l254 -461l250 461h465l-508 -823v-543h-414v543z" />
    <glyph glyph-name="Z" unicode="Z" horiz-adv-x="1228" 
d="M74 0v328l520 678h-520v360h1067v-326l-523 -680h537v-360h-1081z" />
    <glyph glyph-name="bracketleft" unicode="[" horiz-adv-x="649" 
d="M111 -389v1778h501v-234h-245v-1311h245v-233h-501z" />
    <glyph glyph-name="backslash" unicode="\" horiz-adv-x="741" 
d="M0 1407h256l485 -1448h-256z" />
    <glyph glyph-name="bracketright" unicode="]" horiz-adv-x="649" 
d="M37 -156h246v1311h-246v234h502v-1778h-502v233z" />
    <glyph glyph-name="asciicircum" unicode="^" horiz-adv-x="921" 
d="M39 682l293 684h264l287 -684h-258l-164 440l-162 -440h-260z" />
    <glyph glyph-name="underscore" unicode="_" horiz-adv-x="1155" 
d="M-6 -82h1167v-233h-1167v233z" />
    <glyph glyph-name="uni02CB" unicode="`" horiz-adv-x="563" 
d="M0 1434h317l246 -295h-246z" />
    <glyph glyph-name="uni02CB" unicode="&#x2cb;" horiz-adv-x="563" 
d="M0 1434h317l246 -295h-246z" />
    <glyph glyph-name="a" unicode="a" horiz-adv-x="1144" 
d="M35 301q0 115 56 189.5t128 100t156 25.5q213 0 299 -108v102q0 53 -48 88t-137 35q-147 0 -274 -96l-125 227q186 150 467 150q98 0 180 -19.5t154 -63.5t111.5 -129t39.5 -204v-598h-368v94q-41 -53 -124 -86t-175 -33q-127 0 -233.5 85t-106.5 241zM399 295
q0 -80 129 -80q109 0 146 53v56q-37 53 -146 53q-129 0 -129 -82z" />
    <glyph glyph-name="b" unicode="b" horiz-adv-x="1220" 
d="M102 0v1366h369v-481q106 129 279 129q188 0 312 -139.5t124 -378.5q0 -246 -124 -383.5t-312 -137.5q-164 0 -279 129v-104h-369zM471 367q53 -66 154 -66q78 0 131 52.5t53 142.5q0 88 -53.5 140t-130.5 52q-98 0 -154 -67v-254z" />
    <glyph glyph-name="c" unicode="c" horiz-adv-x="1028" 
d="M35 496q0 231 157.5 374.5t397.5 143.5q154 0 262.5 -56.5t157.5 -130.5l-238 -223q-55 84 -166 84q-82 0 -138 -50t-56 -142.5t56 -143.5t138 -51q106 0 166 86l238 -225q-49 -74 -157.5 -130.5t-262.5 -56.5q-240 0 -397.5 143.5t-157.5 377.5z" />
    <glyph glyph-name="d" unicode="d" horiz-adv-x="1220" 
d="M35 496q0 240 124 379t312 139q172 0 279 -129v481h368v-1366h-368v104q-115 -129 -279 -129q-188 0 -312 137.5t-124 383.5zM412 496q0 -90 53 -142.5t131 -52.5q98 0 154 68v254q-52 65 -151 65h-3q-78 0 -131 -52t-53 -140z" />
    <glyph glyph-name="e" unicode="e" horiz-adv-x="1112" 
d="M35 496q0 219 151.5 368.5t386.5 149.5q223 0 368.5 -150.5t145.5 -406.5v-76h-671q16 -51 71.5 -88t141.5 -37q47 0 119.5 20.5t107.5 49.5l152 -228q-70 -59 -186.5 -91t-235.5 -32q-238 0 -394.5 141.5t-156.5 379.5zM412 614h325q-29 119 -164 119q-129 0 -161 -119z
" />
    <glyph glyph-name="f" unicode="f" horiz-adv-x="759" 
d="M14 670v319h164v45q0 156 106.5 254t270.5 98q209 0 309 -106l-133 -205q-33 39 -92 39q-37 0 -64.5 -22.5t-27.5 -57.5v-45h201v-319h-201v-670h-369v670h-164z" />
    <glyph glyph-name="g" unicode="g" horiz-adv-x="1218" 
d="M35 520q0 238 122 366t312 128q170 0 279 -129v104h368v-883q0 -123 -40 -217t-99 -147t-142 -87t-159 -45t-158 -11q-264 0 -450 147l155 262q108 -108 292 -108h3q88 0 159 46t71 160v54q-117 -133 -279 -133q-190 0 -312 126t-122 367zM412 520q0 -86 51 -127t133 -41
q39 0 83 17.5t69 46.5v209q-25 29 -69 46t-83 17q-82 0 -133 -41t-51 -127z" />
    <glyph glyph-name="h" unicode="h" horiz-adv-x="1245" 
d="M104 0v1366h369v-489q121 137 340 137q164 0 247 -85t83 -222v-707h-369v551q0 137 -143 137q-88 0 -158 -78v-610h-369z" />
    <glyph glyph-name="i" unicode="i" 
d="M80 1268q0 86 60.5 146.5t146.5 60.5t146.5 -60.5t60.5 -146.5t-60.5 -146.5t-146.5 -60.5t-146.5 60.5t-60.5 146.5zM102 0v989h369v-989h-369z" />
    <glyph glyph-name="j" unicode="j" 
d="M-217 -334l88 273q51 -39 123 -39q109 0 108 143v946h369v-946q0 -201 -102.5 -322.5t-309.5 -121.5q-106 0 -159.5 14t-116.5 53zM80 1268q0 86 60.5 146.5t146.5 60.5t146.5 -60.5t60.5 -146.5t-60.5 -146.5t-146.5 -60.5t-146.5 60.5t-60.5 146.5z" />
    <glyph glyph-name="k" unicode="k" horiz-adv-x="1140" 
d="M102 0v1366h369v-729l227 352h445l-340 -450l362 -539h-452l-170 319l-72 -96v-223h-369z" />
    <glyph glyph-name="l" unicode="l" 
d="M102 0v1366h369v-1366h-369z" />
    <glyph glyph-name="m" unicode="m" horiz-adv-x="1837" 
d="M102 0v989h369v-112q39 49 129 93t199 44q221 0 284 -174q47 72 140.5 123t206.5 51q141 0 223 -74t82 -223v-717h-369v578q0 49 -27.5 79.5t-85.5 30.5q-84 0 -151 -78v-610h-369v578q0 110 -110 110h-2q-82 0 -150 -78v-610h-369z" />
    <glyph glyph-name="n" unicode="n" horiz-adv-x="1243" 
d="M102 0v989h369v-112q121 137 340 137q164 0 247 -87t83 -225v-702h-369v547q0 141 -143 141q-88 0 -158 -78v-610h-369z" />
    <glyph glyph-name="o" unicode="o" horiz-adv-x="1181" 
d="M35 496q0 217 150.5 367.5t404.5 150.5t405.5 -150.5t151.5 -367.5t-151.5 -369t-405.5 -152t-404.5 152t-150.5 369zM414 496q0 -86 47 -140.5t129 -54.5q84 0 131 54.5t47 140.5q0 84 -47 138t-131 54q-82 0 -129 -54t-47 -138z" />
    <glyph glyph-name="p" unicode="p" horiz-adv-x="1218" 
d="M102 -377v1366h369v-104q109 129 279 129q190 0 312 -136.5t122 -381.5q0 -248 -122 -384.5t-312 -136.5q-166 0 -279 129v-481h-369zM471 369q23 -29 69 -48.5t83 -19.5q78 0 131 52.5t53 142.5q0 88 -53.5 140t-130.5 52q-39 0 -83 -18.5t-69 -48.5v-252z" />
    <glyph glyph-name="q" unicode="q" horiz-adv-x="1218" 
d="M35 496q0 246 122 382t312 136q170 0 279 -129v104h368v-1366h-368v481q-113 -129 -279 -129q-190 0 -312 136.5t-122 384.5zM412 496q0 -90 53 -142.5t131 -52.5q37 0 83 19.5t69 48.5v252q-25 31 -69 49t-83 18q-78 0 -131 -52t-53 -140z" />
    <glyph glyph-name="r" unicode="r" horiz-adv-x="798" 
d="M102 0v989h369v-108q47 55 134 96t169 41v-352q-31 10 -84 10q-162 0 -219 -70v-606h-369z" />
    <glyph glyph-name="s" unicode="s" horiz-adv-x="1003" 
d="M18 127l148 248q59 -47 167.5 -86t188.5 -39q98 0 99 43q0 25 -57.5 36t-140.5 23.5t-166 39t-140.5 100t-57.5 188.5q0 141 118 237.5t325 96.5q236 0 428 -127l-135 -240q-51 41 -130 72t-161 31q-92 0 -92 -43q0 -21 57 -31l140 -24q83 -15 166 -43.5t140.5 -103.5
t57.5 -190q0 -150 -127 -245t-342 -95q-135 0 -270.5 42t-215.5 110z" />
    <glyph glyph-name="t" unicode="t" horiz-adv-x="782" 
d="M14 670v319h164v271h369v-271h201v-319h-201v-277q0 -39 22.5 -65.5t59.5 -26.5q55 0 73 18l66 -278q-74 -66 -250 -66q-166 0 -253 79t-87 233v383h-164z" />
    <glyph glyph-name="u" unicode="u" horiz-adv-x="1241" 
d="M102 283v706h369v-549q0 -139 143 -139q86 0 156 78v610h369v-989h-369v111q-123 -135 -340 -136q-164 0 -246 86t-82 222z" />
    <glyph glyph-name="v" unicode="v" horiz-adv-x="1095" 
d="M-31 989h389l189 -565l190 565h389l-383 -989h-391z" />
    <glyph glyph-name="w" unicode="w" horiz-adv-x="1648" 
d="M-25 989h379l131 -545l174 545h330l172 -545l131 545h381l-287 -989h-401l-162 553l-159 -553h-402z" />
    <glyph glyph-name="x" unicode="x" horiz-adv-x="1067" 
d="M-25 0l324 508l-303 481h403l133 -231l134 231h403l-303 -481l326 -508h-404l-153 262l-158 -262h-402z" />
    <glyph glyph-name="y" unicode="y" horiz-adv-x="1095" 
d="M-31 989h389l189 -565l190 565h389l-430 -1112q-61 -160 -171.5 -216t-288.5 -62q-89 0 -144 16l51 328q33 -18 78 -19q111 0 129 39l8 21z" />
    <glyph glyph-name="z" unicode="z" horiz-adv-x="995" 
d="M68 0v270l348 400h-348v319h852v-258l-357 -412h365v-319h-860z" />
    <glyph glyph-name="braceleft" unicode="{" horiz-adv-x="647" 
d="M4 403v193q51 0 79 36t28 95v283q0 172 111.5 275.5t266.5 103.5h123v-234h-123q-53 0 -87.5 -39t-34.5 -104v-326q0 -145 -95 -186q94 -41 95 -187v-323q0 -66 35.5 -106t86.5 -40h123v-233h-123q-156 0 -267 102.5t-111 274.5v284q0 59 -28 95t-79 36z" />
    <glyph glyph-name="bar" unicode="|" horiz-adv-x="454" 
d="M111 -41v1448h233v-1448h-233z" />
    <glyph glyph-name="braceright" unicode="}" horiz-adv-x="647" 
d="M35 -156h123q51 0 87 40t36 106v323q0 145 94 187q-94 41 -94 186v326q0 66 -35 104.5t-88 38.5h-123v234h123q156 0 267.5 -103.5t111.5 -275.5v-283q0 -59 27.5 -95t78.5 -36v-193q-51 0 -78.5 -35.5t-27.5 -95.5v-284q0 -172 -112 -274.5t-267 -102.5h-123v233z" />
    <glyph glyph-name="asciitilde" unicode="~" horiz-adv-x="1060" 
d="M51 848q8 104 24.5 185t50.5 162t98.5 126t154.5 45q78 0 129 -35t73.5 -83t36 -97t29 -84t37.5 -35q68 0 88 334l238 -29q-8 -106 -23.5 -185t-49.5 -161t-97.5 -126t-155.5 -44q-78 0 -129 34t-73.5 83t-36 98t-29 83t-37.5 34q-66 0 -86 -332z" />
    <glyph glyph-name="uni00A0" unicode="&#xa0;" horiz-adv-x="522" 
 />
    <glyph glyph-name="exclamdown" unicode="&#xa1;" 
d="M68 -377l51 858h332l55 -858h-438zM68 797q0 88 64.5 152.5t152.5 64.5t152.5 -64.5t64.5 -152.5q0 -90 -64.5 -154.5t-152.5 -64.5t-152.5 64.5t-64.5 154.5z" />
    <glyph glyph-name="cent" unicode="&#xa2;" horiz-adv-x="1028" 
d="M35 496q0 199 120.5 335t313.5 173v153h258v-158q197 -41 283 -172l-238 -223q-55 84 -166 84q-82 0 -138 -50t-56 -142.5t56 -143.5t138 -51q106 0 166 86l238 -225q-88 -131 -283 -172v-195h-258v191q-193 35 -313.5 172t-120.5 338z" />
    <glyph glyph-name="sterling" unicode="&#xa3;" horiz-adv-x="1189" 
d="M53 553v223h78q-45 86 -45 166q0 139 87 244.5t206 152.5t242 47q205 0 334.5 -63t203.5 -203l-328 -188q-43 123 -157 123q-59 0 -97 -35t-38 -86q0 -55 45 -158h274v-223h-223q-4 -49 -33 -99.5t-72 -74.5q37 12 88 12q57 0 125 -25.5t109 -25.5q106 0 156 68l157 -326
q-98 -106 -327 -107q-96 0 -217 43t-158 43q-102 0 -234 -75l-135 270q174 96 174 197q0 41 -18 100h-197z" />
    <glyph glyph-name="currency" unicode="&#xa4;" horiz-adv-x="1069" 
d="M74 281l114 114q-102 129 -102 287q0 162 102 287l-114 116l57 58l117 -115q121 102 287 102q162 0 286 -102l115 115l59 -58l-114 -116q102 -125 102 -287q0 -158 -102 -287l114 -114l-59 -60l-115 117q-123 -104 -287 -104q0 -1 -1 -1q-163 0 -285 105l-117 -117z
M184 682q0 -145 102.5 -247.5t248 -102.5t248 102.5t102.5 247.5t-102.5 247.5t-248 102.5t-248 -102.5t-102.5 -247.5z" />
    <glyph glyph-name="yen" unicode="&#xa5;" horiz-adv-x="1359" 
d="M-37 1366h465l254 -461l250 461h465l-375 -608h291v-215h-424v-109h424v-215h-424v-219h-414v219h-424v215h424v109h-424v215h289z" />
    <glyph glyph-name="brokenbar" unicode="&#xa6;" horiz-adv-x="454" 
d="M111 -41v647h233v-647h-233zM111 760v647h233v-647h-233z" />
    <glyph glyph-name="section" unicode="&#xa7;" horiz-adv-x="1024" 
d="M25 -2l141 229q63 -55 157.5 -99t180.5 -44q117 0 117 55q0 37 -57.5 57.5t-140.5 37t-166 44t-140.5 98t-57.5 183.5q0 88 52.5 152.5t111.5 95.5q-164 76 -164 266q0 135 127 224t314 89q274 0 428 -133l-133 -215q-123 98 -277 99q-106 0 -106 -56q0 -31 57 -48
t140 -31.5t166 -41t140.5 -95t57.5 -177.5q0 -80 -41 -150.5t-113 -111.5q154 -76 154 -252q0 -158 -132 -249t-337 -91q-281 0 -479 164zM412 621q0 -88 129 -111q69 28 69 100q0 86 -110 109q-88 -16 -88 -98z" />
    <glyph glyph-name="dieresis" unicode="&#xa8;" horiz-adv-x="651" 
d="M-78 1265.5q0 77.5 53.5 130t129 52.5t129 -52.5t53.5 -130t-53.5 -130t-129 -52.5t-129 52.5t-53.5 130zM365 1265.5q0 75.5 53 129t129 53.5q78 0 131 -53.5t53 -129t-53 -129t-131 -53.5q-76 0 -129 53.5t-53 129z" />
    <glyph glyph-name="copyright" unicode="&#xa9;" horiz-adv-x="1593" 
d="M90 684q0 293 207 500t500 207t499.5 -207t206.5 -500t-206.5 -500t-499.5 -207t-500 208t-207 499zM176 684q0 -254 182.5 -437.5t438.5 -183.5t438 182.5t182 438.5t-182 438.5t-438 182.5t-438.5 -182.5t-182.5 -438.5zM387 686q0 184 124 305t302 121q188 0 307 -139
l-76 -76q-88 119 -231 119q-133 0 -223 -93.5t-90 -236.5q0 -141 91 -237.5t222 -96.5q144 0 234 121l77 -74q-123 -143 -311 -143q-178 0 -302 123t-124 307z" />
    <glyph glyph-name="ordfeminine" unicode="&#xaa;" horiz-adv-x="802" 
d="M41 862.5q0 100.5 67.5 152.5t155.5 52q139 0 197 -68v50q0 39 -30 63.5t-87 24.5q-96 0 -176 -74l-90 168q129 96 313 96q330 0 330 -285v-374h-260v59q-59 -76 -197 -76q-86 0 -154.5 55.5t-68.5 156zM297 862q0 -53 78 -53q63 0 86 39v31q-22 36 -83 36h-3
q-78 0 -78 -53z" />
    <glyph glyph-name="guillemotleft" unicode="&#xab;" horiz-adv-x="1259" 
d="M61 498l328 362h328l-328 -362l328 -369h-328zM543 498l327 362h328l-328 -362l328 -369h-328z" />
    <glyph glyph-name="logicalnot" unicode="&#xac;" horiz-adv-x="1079" 
d="M59 764v215h926v-590h-221v375h-705z" />
    <glyph glyph-name="uni00AD" unicode="&#xad;" horiz-adv-x="614" 
d="M61 342v307h492v-307h-492z" />
    <glyph glyph-name="registered" unicode="&#xae;" horiz-adv-x="1011" 
d="M72 952.5q0 180.5 127 307t307 126.5q182 0 308 -126t126 -308q0 -180 -127 -307t-307 -127t-307 127t-127 307.5zM143 952q0 -150 106.5 -256t256 -106t256 106t106.5 256q0 152 -105.5 257.5t-257 105.5t-257 -105.5t-105.5 -257.5zM338 702v498h203q66 0 117 -43
t51 -108q0 -72 -46.5 -110t-80.5 -38l133 -199h-92l-129 197h-80v-197h-76zM414 965h127q35 0 62.5 23.5t27.5 60.5q0 39 -28 63.5t-62 24.5h-127v-172z" />
    <glyph glyph-name="uni203E" unicode="&#xaf;" horiz-adv-x="743" 
d="M0 1210v199h743v-199h-743z" />
    <glyph glyph-name="uni203E" unicode="&#x203e;" horiz-adv-x="743" 
d="M0 1210v199h743v-199h-743z" />
    <glyph glyph-name="degree" unicode="&#xb0;" horiz-adv-x="677" 
d="M35 1081q0 127 89 216t214 89t215 -89t90 -216q0 -125 -89 -214t-216 -89q-125 0 -214 88t-89 215zM221 1081q0 -49 34 -82.5t83 -33.5t85 33.5t36 82.5t-36 85t-85 36t-83 -36t-34 -85z" />
    <glyph glyph-name="plusminus" unicode="&#xb1;" horiz-adv-x="1044" 
d="M59 0v215h926v-215h-926zM59 672v215h344v379h238v-379h344v-215h-344v-396h-238v396h-344z" />
    <glyph glyph-name="uni00B2" unicode="&#xb2;" horiz-adv-x="833" 
d="M45 1554q133 139 358 140q170 0 268.5 -73t98.5 -196q0 -80 -62.5 -155.5t-232.5 -194.5h303v-213h-692v195q197 137 284 202.5t108.5 91t21.5 52.5q0 78 -103 78q-61 0 -122.5 -31t-94.5 -68z" />
    <glyph glyph-name="uni00B3" unicode="&#xb3;" horiz-adv-x="833" 
d="M47 975l127 178q47 -47 112.5 -69.5t116.5 -22.5q113 0 113 53q0 37 -35 47t-114 10q-88 0 -101 -2v209q18 -2 99 -2q78 0 107.5 11.5t29.5 42.5q0 51 -117 51q-123 0 -209 -80l-119 158q129 135 359 135q174 0 264 -62.5t90 -165.5q0 -63 -50 -115.5t-132 -66.5
q76 -6 136 -58t60 -132q0 -109 -102 -177.5t-268 -68.5q-244 0 -367 127z" />
    <glyph glyph-name="acute" unicode="&#xb4;" horiz-adv-x="563" 
d="M0 1139l246 295h317l-317 -295h-246z" />
    <glyph glyph-name="mu" unicode="&#xb5;" horiz-adv-x="1241" 
d="M102 -377v1366h369v-549q0 -139 143 -139q86 0 156 78v610h369v-989h-369v111q-109 -123 -299 -136v-352h-369z" />
    <glyph glyph-name="mu" unicode="&#x3bc;" horiz-adv-x="1241" 
d="M102 -377v1366h369v-549q0 -139 143 -139q86 0 156 78v610h369v-989h-369v111q-109 -123 -299 -136v-352h-369z" />
    <glyph glyph-name="paragraph" unicode="&#xb6;" horiz-adv-x="919" 
d="M55 1013.5q0 145.5 103.5 249t249.5 103.5h466v-1571h-163v1407h-140v-1407h-163v867q-145 0 -249 103t-104 248.5z" />
    <glyph glyph-name="uni2219" unicode="&#xb7;" horiz-adv-x="579" 
d="M72 500q0 90 64.5 154.5t152.5 64.5t152.5 -64.5t64.5 -154.5q0 -88 -64.5 -152.5t-152.5 -64.5t-152.5 64.5t-64.5 152.5z" />
    <glyph glyph-name="uni2219" unicode="&#x2219;" horiz-adv-x="579" 
d="M72 500q0 90 64.5 154.5t152.5 64.5t152.5 -64.5t64.5 -154.5q0 -88 -64.5 -152.5t-152.5 -64.5t-152.5 64.5t-64.5 152.5z" />
    <glyph glyph-name="cedilla" unicode="&#xb8;" horiz-adv-x="485" 
d="M0 -340l63 131q88 -61 170 -61q86 0 86 49q0 35 -43 35q-33 0 -53 -25l-121 70l62 164h164l-52 -119q31 18 70 18q57 0 98 -42t41 -107q0 -84 -69.5 -133.5t-171.5 -49.5q-158 0 -244 70z" />
    <glyph glyph-name="uni00B9" unicode="&#xb9;" horiz-adv-x="688" 
d="M0 1358l334 323h231v-819h-270v477l-143 -141z" />
    <glyph glyph-name="ordmasculine" unicode="&#xba;" horiz-adv-x="829" 
d="M41 989q0 139 102.5 238.5t270.5 99.5q172 0 273 -99.5t101 -238.5t-101 -238.5t-273 -99.5q-168 0 -270.5 99.5t-102.5 238.5zM309 989q1 -133 105 -133q108 0 108 131t-108 131q-104 0 -105 -129z" />
    <glyph glyph-name="guillemotright" unicode="&#xbb;" horiz-adv-x="1259" 
d="M61 129l328 369l-328 362h328l328 -362l-328 -369h-328zM543 129l327 369l-327 362h327l328 -362l-328 -369h-327z" />
    <glyph glyph-name="onequarter" unicode="&#xbc;" horiz-adv-x="1837" 
d="M0 1042l334 324h231v-819h-270v477l-143 -141zM344 0l873 1366h200l-874 -1366h-199zM1042 145v179l293 495h379v-465h96v-209h-96v-145h-268v145h-404zM1307 354h139v242z" />
    <glyph glyph-name="onehalf" unicode="&#xbd;" horiz-adv-x="1898" 
d="M0 1042l334 324h231v-819h-270v477l-143 -141zM344 0l873 1366h200l-874 -1366h-199zM1110 692q133 139 358 139q170 0 268.5 -72.5t98.5 -195.5q0 -80 -62.5 -155.5t-232.5 -194.5h303v-213h-692v195q197 137 284 202.5t108.5 91t21.5 52.5q0 77 -100 77h-3
q-61 0 -122.5 -30.5t-94.5 -67.5z" />
    <glyph glyph-name="threequarters" unicode="&#xbe;" horiz-adv-x="1974" 
d="M47 659l127 179q47 -47 112.5 -70t116.5 -23q113 0 113 54q0 37 -35 47t-114 10q-88 0 -101 -2v209q18 -2 99 -2q78 0 107.5 11t29.5 42q0 51 -117 51q-123 0 -209 -80l-119 158q129 135 359 135q174 0 264 -62.5t90 -164.5q0 -63 -50 -115.5t-132 -66.5q76 -6 136 -58.5
t60 -132.5q0 -109 -102 -177.5t-268 -68.5q-244 0 -367 127zM481 0l873 1366h200l-874 -1366h-199zM1180 145v179l293 495h378v-465h97v-209h-97v-145h-268v145h-403zM1444 354h139v242z" />
    <glyph glyph-name="questiondown" unicode="&#xbf;" horiz-adv-x="821" 
d="M16 -68q0 80 30 143.5t73 100.5t86 68.5t72.5 65.5t29.5 71q0 49 -22 76l323 73q55 -76 56 -194q0 -76 -36 -135.5t-79 -88t-79 -55t-36 -47.5q0 -43 80 -43q96 0 178 86l230 -264q-86 -92 -208 -139t-247 -47q-207 0 -329 89t-122 240zM236 795q0 90 64.5 154.5
t154.5 64.5t154.5 -64.5t64.5 -154.5t-64.5 -155t-154.5 -65t-154.5 65t-64.5 155z" />
    <glyph glyph-name="Agrave" unicode="&#xc0;" horiz-adv-x="1454" 
d="M-37 0l504 1366h520l504 -1366h-469l-49 160h-492l-49 -160h-469zM367 1786h317l246 -295h-246zM592 520h270l-135 441z" />
    <glyph glyph-name="Aacute" unicode="&#xc1;" horiz-adv-x="1454" 
d="M-37 0l504 1366h520l504 -1366h-469l-49 160h-492l-49 -160h-469zM530 1491l246 295h318l-318 -295h-246zM592 520h270l-135 441z" />
    <glyph glyph-name="Acircumflex" unicode="&#xc2;" horiz-adv-x="1454" 
d="M-37 0l504 1366h520l504 -1366h-469l-49 160h-492l-49 -160h-469zM387 1491l180 295h320l186 -295h-215l-131 149l-125 -149h-215zM592 520h270l-135 441z" />
    <glyph glyph-name="Atilde" unicode="&#xc3;" horiz-adv-x="1454" 
d="M-37 0l504 1366h520l504 -1366h-469l-49 160h-492l-49 -160h-469zM379 1499q0 274 242 275q72 0 139 -44t86 -44q49 0 49 75h182q1 -274 -241 -274q-72 0 -139.5 44t-86.5 44q-49 0 -49 -76h-182zM592 520h270l-135 441z" />
    <glyph glyph-name="Adieresis" unicode="&#xc4;" horiz-adv-x="1454" 
d="M-37 0l504 1366h520l504 -1366h-469l-49 160h-492l-49 -160h-469zM324 1628q0 76 53 129t129 53t129 -53t53 -129t-53 -129t-129 -53t-129 53t-53 129zM592 520h270l-135 441zM766 1628q0 76 53 129t129 53q78 0 131.5 -53t53.5 -129t-53.5 -129t-131.5 -53
q-76 0 -129 53t-53 129z" />
    <glyph glyph-name="Aring" unicode="&#xc5;" horiz-adv-x="1454" 
d="M-37 0l504 1366h520l504 -1366h-469l-49 160h-492l-49 -160h-469zM500 1648.5q0 94.5 67.5 162t161.5 67.5t159.5 -67.5t65.5 -162t-65.5 -162t-159.5 -67.5t-161.5 67.5t-67.5 162zM592 520h270l-135 441zM657 1648.5q0 -28.5 21.5 -50t50.5 -21.5t49.5 21.5t20.5 50
t-20.5 50t-49.5 21.5t-50.5 -21.5t-21.5 -50z" />
    <glyph glyph-name="AE" unicode="&#xc6;" horiz-adv-x="2025" 
d="M-51 0l809 1366h1206v-360h-623v-136h609v-360h-609v-150h623v-360h-1036v160h-424l-84 -160h-471zM696 520h232v441z" />
    <glyph glyph-name="Ccedilla" unicode="&#xc7;" horiz-adv-x="1427" 
d="M37 682q0 313 213 510t538 197q246 0 396.5 -115t224.5 -283l-356 -166q-27 82 -100.5 140.5t-164.5 58.5q-147 0 -239 -98.5t-92 -243.5t92 -243.5t239 -98.5q90 0 164 58.5t101 140.5l356 -164q-68 -156 -209 -270.5t-364 -127.5l-27 -65q31 18 70 18q57 0 98 -42
t41 -107q0 -84 -70 -133t-172 -49q-158 0 -244 69l64 131q88 -61 170 -61q86 0 86 49q0 35 -43 35q-33 0 -53 -25l-121 70l43 117q-283 33 -462 223t-179 475z" />
    <glyph glyph-name="Egrave" unicode="&#xc8;" horiz-adv-x="1220" 
d="M111 0v1366h1036v-360h-623v-136h609v-360h-609v-150h623v-360h-1036zM268 1786h318l245 -295h-245z" />
    <glyph glyph-name="Eacute" unicode="&#xc9;" horiz-adv-x="1220" 
d="M111 0v1366h1036v-360h-623v-136h609v-360h-609v-150h623v-360h-1036zM430 1491l246 295h317l-317 -295h-246z" />
    <glyph glyph-name="Ecircumflex" unicode="&#xca;" horiz-adv-x="1220" 
d="M111 0v1366h1036v-360h-623v-136h609v-360h-609v-150h623v-360h-1036zM287 1491l180 295h319l187 -295h-215l-131 149l-125 -149h-215z" />
    <glyph glyph-name="Edieresis" unicode="&#xcb;" horiz-adv-x="1220" 
d="M111 0v1366h1036v-360h-623v-136h609v-360h-609v-150h623v-360h-1036zM231 1628q0 76 52.5 129t130.5 53t130 -53t52 -129t-52 -129t-130 -53t-130.5 53t-52.5 129zM674 1628q0 76 53 129t129 53q78 0 131 -53t53 -129t-53 -129t-131 -53q-76 0 -129 53t-53 129z" />
    <glyph glyph-name="Igrave" unicode="&#xcc;" horiz-adv-x="634" 
d="M-49 1786h317l246 -295h-246zM111 0v1366h413v-1366h-413z" />
    <glyph glyph-name="Iacute" unicode="&#xcd;" horiz-adv-x="634" 
d="M111 0v1366h413v-1366h-413zM125 1491l246 295h317l-317 -295h-246z" />
    <glyph glyph-name="Icircumflex" unicode="&#xce;" horiz-adv-x="634" 
d="M-29 1491l181 295h319l186 -295h-215l-131 149l-125 -149h-215zM111 0v1366h413v-1366h-413z" />
    <glyph glyph-name="Idieresis" unicode="&#xcf;" horiz-adv-x="634" 
d="M-86 1626q0 78 53 130t129 52t129.5 -52t53.5 -130t-53.5 -130t-129.5 -52t-129 52t-53 130zM111 0v1366h413v-1366h-413zM356 1626q0 76 53.5 129t129.5 53q78 0 131 -53t53 -129t-53.5 -129t-130.5 -53q-76 0 -129.5 53t-53.5 129z" />
    <glyph glyph-name="Eth" unicode="&#xd0;" horiz-adv-x="1550" 
d="M14 520v326h140v520h610q332 0 540.5 -181t208.5 -500.5t-208.5 -502t-538.5 -182.5h-612v520h-140zM567 360h197q150 0 240 94.5t90 229.5q0 145 -84 233.5t-244 88.5h-199v-160h264v-326h-264v-160z" />
    <glyph glyph-name="Ntilde" unicode="&#xd1;" horiz-adv-x="1536" 
d="M111 0v1366h426l475 -647v647h413v-1366h-397l-504 692v-692h-413zM416 1499q0 274 241 275q72 0 139.5 -44t86.5 -44q49 0 49 75h182q0 -274 -242 -274q-72 0 -139 44t-86 44q-49 0 -49 -76h-182z" />
    <glyph glyph-name="Ograve" unicode="&#xd2;" horiz-adv-x="1568" 
d="M37 682q0 311 214 509t533.5 198t533.5 -198t214 -509t-214 -509t-533.5 -198t-533.5 198t-214 509zM426 1786h317l246 -295h-246zM457 682q0 -145 91 -243.5t236.5 -98.5t236.5 98.5t91 243.5t-91 243.5t-236.5 98.5t-236.5 -98.5t-91 -243.5z" />
    <glyph glyph-name="Oacute" unicode="&#xd3;" horiz-adv-x="1568" 
d="M37 682q0 311 214 509t533.5 198t533.5 -198t214 -509t-214 -509t-533.5 -198t-533.5 198t-214 509zM457 682q0 -145 91 -243.5t236.5 -98.5t236.5 98.5t91 243.5t-91 243.5t-236.5 98.5t-236.5 -98.5t-91 -243.5zM588 1491l246 295h317l-317 -295h-246z" />
    <glyph glyph-name="Ocircumflex" unicode="&#xd4;" horiz-adv-x="1568" 
d="M37 682q0 311 214 509t533.5 198t533.5 -198t214 -509t-214 -509t-533.5 -198t-533.5 198t-214 509zM449 1491l180 295h319l187 -295h-215l-132 149l-124 -149h-215zM457 682q0 -145 91 -243.5t236.5 -98.5t236.5 98.5t91 243.5t-91 243.5t-236.5 98.5t-236.5 -98.5
t-91 -243.5z" />
    <glyph glyph-name="Otilde" unicode="&#xd5;" horiz-adv-x="1568" 
d="M37 682q0 311 214 509t533.5 198t533.5 -198t214 -509t-214 -509t-533.5 -198t-533.5 198t-214 509zM436 1499q0 274 242 275q72 0 139.5 -44t85.5 -44q49 0 49 75h183q0 -274 -242 -274q-72 0 -139.5 44t-85.5 44q-49 0 -50 -76h-182zM457 682q0 -145 91 -243.5
t236.5 -98.5t236.5 98.5t91 243.5t-91 243.5t-236.5 98.5t-236.5 -98.5t-91 -243.5z" />
    <glyph glyph-name="Odieresis" unicode="&#xd6;" horiz-adv-x="1568" 
d="M37 682q0 311 214 509t533.5 198t533.5 -198t214 -509t-214 -509t-533.5 -198t-533.5 198t-214 509zM387 1628q0 76 52.5 129t130 53t130 -53t52.5 -129t-52.5 -129t-130 -53t-130 53t-52.5 129zM457 682q0 -145 91 -243.5t236.5 -98.5t236.5 98.5t91 243.5t-91 243.5
t-236.5 98.5t-236.5 -98.5t-91 -243.5zM829 1628q0 76 53.5 129t129.5 53q78 0 131 -53t53 -129t-53 -129t-131 -53q-76 0 -129.5 53t-53.5 129z" />
    <glyph glyph-name="multiply" unicode="&#xd7;" horiz-adv-x="1044" 
d="M96 410l275 274l-275 274l154 152l272 -274l275 274l151 -152l-272 -274l272 -274l-151 -152l-275 274l-272 -274z" />
    <glyph glyph-name="Oslash" unicode="&#xd8;" horiz-adv-x="1568" 
d="M37 0l178 209q-178 190 -178 473q0 311 214 509t533 198q190 0 365 -82l51 59h283l-156 -184q205 -199 205 -500q0 -311 -214.5 -509t-533.5 -198q-225 0 -401 101l-64 -76h-282zM457 682q0 -86 30 -154l406 478q-49 18 -109 18q-145 0 -236 -98.5t-91 -243.5zM637 373
q69 -33 147 -33q145 0 236.5 98.5t91.5 243.5q0 104 -51 188z" />
    <glyph glyph-name="Ugrave" unicode="&#xd9;" horiz-adv-x="1570" 
d="M111 561v805h419v-791q0 -102 67 -168.5t189 -66.5q121 0 187.5 66.5t66.5 168.5v791h420v-803q0 -266 -170 -427t-503.5 -161t-504.5 161t-171 425zM428 1786h317l246 -295h-246z" />
    <glyph glyph-name="Uacute" unicode="&#xda;" horiz-adv-x="1570" 
d="M111 561v805h419v-791q0 -102 67 -168.5t189 -66.5q121 0 187.5 66.5t66.5 168.5v791h420v-803q0 -266 -170 -427t-503.5 -161t-504.5 161t-171 425zM592 1491l246 295h317l-317 -295h-246z" />
    <glyph glyph-name="Ucircumflex" unicode="&#xdb;" horiz-adv-x="1570" 
d="M111 561v805h419v-791q0 -102 67 -168.5t189 -66.5q121 0 187.5 66.5t66.5 168.5v791h420v-803q0 -266 -170 -427t-503.5 -161t-504.5 161t-171 425zM459 1491l180 295h319l187 -295h-215l-131 149l-125 -149h-215z" />
    <glyph glyph-name="Udieresis" unicode="&#xdc;" horiz-adv-x="1570" 
d="M111 561v805h419v-791q0 -102 67 -168.5t189 -66.5q121 0 187.5 66.5t66.5 168.5v791h420v-803q0 -266 -170 -427t-503.5 -161t-504.5 161t-171 425zM389 1628q0 76 53.5 129t129 53t129 -53t53.5 -129t-53.5 -129t-129 -53t-129 53t-53.5 129zM831 1628q0 76 53.5 129
t129.5 53q78 0 131 -53t53 -129t-53 -129t-131 -53q-76 0 -129.5 53t-53.5 129z" />
    <glyph glyph-name="Yacute" unicode="&#xdd;" horiz-adv-x="1359" 
d="M-37 1366h465l254 -461l250 461h465l-508 -823v-543h-414v543zM485 1491l246 295h318l-318 -295h-246z" />
    <glyph glyph-name="Thorn" unicode="&#xde;" horiz-adv-x="1355" 
d="M111 0v1366h413v-197h316q231 0 361 -135t130 -335.5t-130 -333t-361 -132.5h-316v-233h-413zM524 594h262q55 0 90 27.5t35 79t-34.5 80t-90.5 28.5h-262v-215z" />
    <glyph glyph-name="germandbls" unicode="&#xdf;" horiz-adv-x="1409" 
d="M104 0v924q0 195 146.5 328.5t400.5 133.5q195 0 340.5 -92t145.5 -241q0 -80 -36 -143.5t-80 -94.5t-80 -62.5t-36 -56.5q0 -16 36 -25t89 -14.5t114.5 -25t115 -51t89 -100.5t35.5 -165q0 -154 -124.5 -247t-317.5 -93q-250 0 -424 148l141 252q41 -51 124 -88t159 -37
q90 0 90 43q0 23 -49 36t-119.5 28.5t-141.5 43t-120 99t-49 180.5q0 70 31.5 128t70.5 88t71 57.5t32 41.5q0 66 -115 66q-78 0 -124 -36t-46 -101v-924h-369z" />
    <glyph glyph-name="agrave" unicode="&#xe0;" horiz-adv-x="1144" 
d="M35 301q0 115 56 189.5t128 100t156 25.5q213 0 299 -108v102q0 53 -48 88t-137 35q-147 0 -274 -96l-125 227q186 150 467 150q98 0 180 -19.5t154 -63.5t111.5 -129t39.5 -204v-598h-368v94q-41 -53 -124 -86t-175 -33q-127 0 -233.5 85t-106.5 241zM197 1434h317
l246 -295h-246zM399 295q0 -80 129 -80q109 0 146 53v56q-37 53 -146 53q-129 0 -129 -82z" />
    <glyph glyph-name="aacute" unicode="&#xe1;" horiz-adv-x="1144" 
d="M35 301q0 115 56 189.5t128 100t156 25.5q213 0 299 -108v102q0 53 -48 88t-137 35q-147 0 -274 -96l-125 227q186 150 467 150q98 0 180 -19.5t154 -63.5t111.5 -129t39.5 -204v-598h-368v94q-41 -53 -124 -86t-175 -33q-127 0 -233.5 85t-106.5 241zM375 1139l246 295
h317l-317 -295h-246zM399 295q0 -80 129 -80q109 0 146 53v56q-37 53 -146 53q-129 0 -129 -82z" />
    <glyph glyph-name="acircumflex" unicode="&#xe2;" horiz-adv-x="1144" 
d="M35 301q0 115 56 189.5t128 100t156 25.5q213 0 299 -108v102q0 53 -48 88t-137 35q-147 0 -274 -96l-125 227q186 150 467 150q98 0 180 -19.5t154 -63.5t111.5 -129t39.5 -204v-598h-368v94q-41 -53 -124 -86t-175 -33q-127 0 -233.5 85t-106.5 241zM227 1139l181 295
h319l186 -295h-215l-131 149l-125 -149h-215zM399 295q0 -80 129 -80q109 0 146 53v56q-37 53 -146 53q-129 0 -129 -82z" />
    <glyph glyph-name="atilde" unicode="&#xe3;" horiz-adv-x="1144" 
d="M35 301q0 115 56 189.5t128 100t156 25.5q213 0 299 -108v102q0 53 -48 88t-137 35q-147 0 -274 -96l-125 227q186 150 467 150q98 0 180 -19.5t154 -63.5t111.5 -129t39.5 -204v-598h-368v94q-41 -53 -124 -86t-175 -33q-127 0 -233.5 85t-106.5 241zM215 1147
q0 274 242 274q72 0 139.5 -44t85.5 -44q49 0 49 76h182q1 -274 -241 -274q-72 0 -139.5 44t-86.5 44q-49 0 -49 -76h-182zM399 295q0 -80 129 -80q109 0 146 53v56q-37 53 -146 53q-129 0 -129 -82z" />
    <glyph glyph-name="adieresis" unicode="&#xe4;" horiz-adv-x="1144" 
d="M35 301q0 115 56 189.5t128 100t156 25.5q213 0 299 -108v102q0 53 -48 88t-137 35q-147 0 -274 -96l-125 227q186 150 467 150q98 0 180 -19.5t154 -63.5t111.5 -129t39.5 -204v-598h-368v94q-41 -53 -124 -86t-175 -33q-127 0 -233.5 85t-106.5 241zM156 1265.5
q0 77.5 53 130t129 52.5t129 -52.5t53 -130t-53 -130t-129 -52.5t-129 52.5t-53 130zM399 295q0 -80 129 -80q109 0 146 53v56q-37 53 -146 53q-129 0 -129 -82zM598 1265.5q0 75.5 53.5 129t128.5 53.5q78 0 131.5 -53.5t53.5 -129t-53.5 -129t-131.5 -53.5
q-76 0 -129 53.5t-53 129z" />
    <glyph glyph-name="aring" unicode="&#xe5;" horiz-adv-x="1144" 
d="M35 301q0 115 56 189.5t128 100t156 25.5q213 0 299 -108v102q0 53 -48 88t-137 35q-147 0 -274 -96l-125 227q186 150 467 150q98 0 180 -19.5t154 -63.5t111.5 -129t39.5 -204v-598h-368v94q-41 -53 -124 -86t-175 -33q-127 0 -233.5 85t-106.5 241zM338 1323
q0 94 67.5 161.5t162 67.5t160 -67.5t65.5 -161.5t-65.5 -161.5t-160 -67.5t-162 67.5t-67.5 161.5zM399 295q0 -80 129 -80q109 0 146 53v56q-37 53 -146 53q-129 0 -129 -82zM496 1323q0 -29 21.5 -50.5t50 -21.5t49 21.5t20.5 50.5t-20.5 50.5t-49 21.5t-50 -21.5
t-21.5 -50.5z" />
    <glyph glyph-name="ae" unicode="&#xe6;" horiz-adv-x="1742" 
d="M35 295q0 158 97 239.5t243 81.5q92 0 174 -28.5t125 -77.5v100q0 53 -48 87t-137 34q-152 0 -274 -96l-125 229q186 150 467 150q221 0 340 -107q119 106 328 107h1q208 0 350 -152q142 -151 142 -405v-76h-671q55 -117 223 -117q125 0 209 70l159 -236
q-70 -59 -186.5 -91t-234.5 -32q-117 0 -227.5 40t-180.5 114q-70 -70 -178.5 -112t-222.5 -42q-152 0 -262.5 81t-110.5 239zM399 295q0 -80 129 -80q115 0 154 57q-8 20 -8 50q-39 55 -146 55q-53 0 -91 -20.5t-38 -61.5zM1042 614h326q-29 119 -164 119q-131 0 -162 -119
z" />
    <glyph glyph-name="ccedilla" unicode="&#xe7;" horiz-adv-x="1028" 
d="M35 496q0 231 157.5 374.5t397.5 143.5q154 0 262.5 -56.5t157.5 -130.5l-238 -223q-55 84 -166 84q-82 0 -138 -50t-56 -142.5t56 -143.5t138 -51q106 0 166 86l238 -225q-43 -63 -132.5 -115.5t-213.5 -66.5l-31 -72q31 18 69 18q57 0 98.5 -42t41.5 -107
q0 -84 -70 -133.5t-172 -49.5q-158 0 -244 70l64 131q88 -61 170 -61q86 0 86 49q0 35 -43 35q-33 0 -53 -25l-121 70l43 119q-207 25 -337 164t-130 350z" />
    <glyph glyph-name="egrave" unicode="&#xe8;" horiz-adv-x="1112" 
d="M35 496q0 219 151.5 368.5t386.5 149.5q223 0 368.5 -150.5t145.5 -406.5v-76h-671q16 -51 71.5 -88t141.5 -37q47 0 119.5 20.5t107.5 49.5l152 -228q-70 -59 -186.5 -91t-235.5 -32q-238 0 -394.5 141.5t-156.5 379.5zM209 1434h317l246 -295h-246zM412 614h325
q-29 119 -164 119q-129 0 -161 -119z" />
    <glyph glyph-name="eacute" unicode="&#xe9;" horiz-adv-x="1112" 
d="M35 496q0 219 151.5 368.5t386.5 149.5q223 0 368.5 -150.5t145.5 -406.5v-76h-671q16 -51 71.5 -88t141.5 -37q47 0 119.5 20.5t107.5 49.5l152 -228q-70 -59 -186.5 -91t-235.5 -32q-238 0 -394.5 141.5t-156.5 379.5zM379 1139l246 295h317l-317 -295h-246zM412 614
h325q-29 119 -164 119q-129 0 -161 -119z" />
    <glyph glyph-name="ecircumflex" unicode="&#xea;" horiz-adv-x="1112" 
d="M35 496q0 219 151.5 368.5t386.5 149.5q223 0 368.5 -150.5t145.5 -406.5v-76h-671q16 -51 71.5 -88t141.5 -37q47 0 119.5 20.5t107.5 49.5l152 -228q-70 -59 -186.5 -91t-235.5 -32q-238 0 -394.5 141.5t-156.5 379.5zM231 1139l181 295h319l187 -295h-216l-131 149
l-125 -149h-215zM412 614h325q-29 119 -164 119q-129 0 -161 -119z" />
    <glyph glyph-name="edieresis" unicode="&#xeb;" horiz-adv-x="1112" 
d="M35 496q0 219 151.5 368.5t386.5 149.5q223 0 368.5 -150.5t145.5 -406.5v-76h-671q16 -51 71.5 -88t141.5 -37q47 0 119.5 20.5t107.5 49.5l152 -228q-70 -59 -186.5 -91t-235.5 -32q-238 0 -394.5 141.5t-156.5 379.5zM172 1265.5q0 77.5 53.5 130t129 52.5t129 -52.5
t53.5 -130t-53.5 -130t-129 -52.5t-129 52.5t-53.5 130zM412 614h325q-29 119 -164 119q-129 0 -161 -119zM614 1265.5q0 75.5 53.5 129t129.5 53.5q78 0 131 -53.5t53 -129t-53.5 -129t-130.5 -53.5q-76 0 -129.5 53.5t-53.5 129z" />
    <glyph glyph-name="igrave" unicode="&#xec;" 
d="M-78 1434h318l245 -295h-245zM102 0v989h369v-989h-369z" />
    <glyph glyph-name="iacute" unicode="&#xed;" 
d="M88 1139l246 295h317l-317 -295h-246zM102 0v989h369v-989h-369z" />
    <glyph glyph-name="icircumflex" unicode="&#xee;" 
d="M-55 1139l180 295h319l187 -295h-215l-131 149l-125 -149h-215zM102 0v989h369v-989h-369z" />
    <glyph glyph-name="idieresis" unicode="&#xef;" 
d="M-117 1265.5q0 77.5 52.5 130t130 52.5t130 -52.5t52.5 -130t-52.5 -130t-130 -52.5t-130 52.5t-52.5 130zM102 0v989h369v-989h-369zM326 1265.5q0 75.5 53 129t129 53.5q78 0 131 -53.5t53 -129t-53 -129t-131 -53.5q-76 0 -129 53.5t-53 129z" />
    <glyph glyph-name="eth" unicode="&#xf0;" horiz-adv-x="1181" 
d="M35 440q0 205 124 334t302 129q219 0 332 -196q-45 139 -316 329l-305 -135l-66 160l199 86l-96 57l197 293q143 -86 274 -184l203 88l67 -154l-125 -55q322 -299 322 -664q0 -254 -147.5 -403.5t-409.5 -149.5q-250 0 -402.5 128t-152.5 337zM414 440.5
q0 -63.5 47 -101.5t129 -38q84 0 131 38t47 101.5t-47 101.5t-131 38q-82 0 -129 -38t-47 -101.5z" />
    <glyph glyph-name="ntilde" unicode="&#xf1;" horiz-adv-x="1243" 
d="M123 0v989h369v-112q121 137 339 137q164 0 247 -87t83 -225v-702h-368v547q0 141 -144 141q-88 0 -157 -78v-610h-369zM274 1147q0 274 242 274q72 0 139.5 -44t85.5 -44q49 0 50 76h182q0 -274 -242 -274q-72 0 -139.5 44t-85.5 44q-49 0 -49 -76h-183z" />
    <glyph glyph-name="ograve" unicode="&#xf2;" horiz-adv-x="1181" 
d="M35 496q0 217 150.5 367.5t404.5 150.5t405.5 -150.5t151.5 -367.5t-151.5 -369t-405.5 -152t-404.5 152t-150.5 369zM227 1434h318l246 -295h-246zM414 496q0 -86 47 -140.5t129 -54.5q84 0 131 54.5t47 140.5q0 84 -47 138t-131 54q-82 0 -129 -54t-47 -138z" />
    <glyph glyph-name="oacute" unicode="&#xf3;" horiz-adv-x="1181" 
d="M35 496q0 217 150.5 367.5t404.5 150.5t405.5 -150.5t151.5 -367.5t-151.5 -369t-405.5 -152t-404.5 152t-150.5 369zM391 1139l246 295h317l-317 -295h-246zM414 496q0 -86 47 -140.5t129 -54.5q84 0 131 54.5t47 140.5q0 84 -47 138t-131 54q-82 0 -129 -54t-47 -138z
" />
    <glyph glyph-name="ocircumflex" unicode="&#xf4;" horiz-adv-x="1181" 
d="M35 496q0 217 150.5 367.5t404.5 150.5t405.5 -150.5t151.5 -367.5t-151.5 -369t-405.5 -152t-404.5 152t-150.5 369zM250 1139l180 295h320l186 -295h-215l-131 149l-125 -149h-215zM414 496q0 -86 47 -140.5t129 -54.5q84 0 131 54.5t47 140.5q0 84 -47 138t-131 54
q-82 0 -129 -54t-47 -138z" />
    <glyph glyph-name="otilde" unicode="&#xf5;" horiz-adv-x="1181" 
d="M35 496q0 217 150.5 367.5t404.5 150.5t405.5 -150.5t151.5 -367.5t-151.5 -369t-405.5 -152t-404.5 152t-150.5 369zM242 1147q0 274 241 274q72 0 139.5 -44t86.5 -44q49 0 49 76h182q0 -274 -242 -274q-72 0 -139 44t-86 44q-49 0 -49 -76h-182zM414 496
q0 -86 47 -140.5t129 -54.5q84 0 131 54.5t47 140.5q0 84 -47 138t-131 54q-82 0 -129 -54t-47 -138z" />
    <glyph glyph-name="odieresis" unicode="&#xf6;" horiz-adv-x="1181" 
d="M35 496q0 217 150.5 367.5t404.5 150.5t405.5 -150.5t151.5 -367.5t-151.5 -369t-405.5 -152t-404.5 152t-150.5 369zM186 1265.5q0 77.5 52.5 130t130 52.5t130 -52.5t52.5 -130t-52.5 -130t-130 -52.5t-130 52.5t-52.5 130zM414 496q0 -86 47 -140.5t129 -54.5
q84 0 131 54.5t47 140.5q0 84 -47 138t-131 54q-82 0 -129 -54t-47 -138zM629 1265.5q0 75.5 53 129t129 53.5q78 0 131 -53.5t53 -129t-53 -129t-131 -53.5q-76 0 -129 53.5t-53 129z" />
    <glyph glyph-name="divide" unicode="&#xf7;" horiz-adv-x="1046" 
d="M59 584v215h928v-215h-928zM367 348.5q0 65.5 46 110.5t109.5 45t109.5 -45t46 -110.5t-46 -110.5t-109.5 -45t-109.5 45t-46 110.5zM367 1034q0 63 45 108.5t110.5 45.5t110.5 -45.5t45 -108.5q0 -66 -46 -111.5t-109.5 -45.5t-109.5 46t-46 111z" />
    <glyph glyph-name="oslash" unicode="&#xf8;" horiz-adv-x="1181" 
d="M35 0l131 145q-131 143 -131 351q0 217 150.5 367.5t404.5 150.5q168 0 299 -72l43 47h215l-133 -145q133 -145 133 -348q0 -217 -151.5 -369t-405.5 -152q-172 0 -301 74l-45 -49h-209zM414 496q0 -41 8 -68l227 252q-25 8 -59 8q-82 0 -129 -54t-47 -138zM526 311
q31 -10 64 -10q84 0 131 54.5t47 140.5q0 33 -10 67z" />
    <glyph glyph-name="ugrave" unicode="&#xf9;" horiz-adv-x="1241" 
d="M102 283v706h369v-549q0 -139 143 -139q86 0 156 78v610h369v-989h-369v111q-123 -135 -340 -136q-164 0 -246 86t-82 222zM260 1434h318l245 -295h-245z" />
    <glyph glyph-name="uacute" unicode="&#xfa;" horiz-adv-x="1241" 
d="M102 283v706h369v-549q0 -139 143 -139q86 0 156 78v610h369v-989h-369v111q-123 -135 -340 -136q-164 0 -246 86t-82 222zM424 1139l246 295h317l-317 -295h-246z" />
    <glyph glyph-name="ucircumflex" unicode="&#xfb;" horiz-adv-x="1241" 
d="M102 283v706h369v-549q0 -139 143 -139q86 0 156 78v610h369v-989h-369v111q-123 -135 -340 -136q-164 0 -246 86t-82 222zM283 1139l180 295h319l187 -295h-215l-131 149l-125 -149h-215z" />
    <glyph glyph-name="udieresis" unicode="&#xfc;" horiz-adv-x="1241" 
d="M102 283v706h369v-549q0 -139 143 -139q86 0 156 78v610h369v-989h-369v111q-123 -135 -340 -136q-164 0 -246 86t-82 222zM221 1265.5q0 77.5 53.5 130t129 52.5t129 -52.5t53.5 -130t-53.5 -130t-129 -52.5t-129 52.5t-53.5 130zM664 1265.5q0 75.5 53 129t129 53.5
q78 0 131 -53.5t53 -129t-53 -129t-131 -53.5q-76 0 -129 53.5t-53 129z" />
    <glyph glyph-name="yacute" unicode="&#xfd;" horiz-adv-x="1095" 
d="M-31 989h389l189 -565l190 565h389l-430 -1112q-61 -160 -171.5 -216t-288.5 -62q-89 0 -144 16l51 328q33 -18 78 -19q111 0 129 39l8 21zM348 1139l246 295h317l-317 -295h-246z" />
    <glyph glyph-name="thorn" unicode="&#xfe;" horiz-adv-x="1218" 
d="M102 -377v1743h369v-481q109 129 279 129q190 0 312 -136.5t122 -381.5q0 -248 -122 -384.5t-312 -136.5q-166 0 -279 129v-481h-369zM471 369q23 -29 69 -48.5t83 -19.5q78 0 131 52.5t53 142.5q0 88 -53.5 140t-130.5 52q-39 0 -83 -18.5t-69 -48.5v-252z" />
    <glyph glyph-name="ydieresis" unicode="&#xff;" horiz-adv-x="1095" 
d="M-31 989h389l189 -565l190 565h389l-430 -1112q-61 -160 -171.5 -216t-288.5 -62q-89 0 -144 16l51 328q33 -18 78 -19q111 0 129 39l8 21zM143 1265.5q0 77.5 53.5 130t129 52.5t129 -52.5t53.5 -130t-53.5 -130t-129 -52.5t-129 52.5t-53.5 130zM586 1265.5
q0 75.5 53 129t129 53.5q78 0 131 -53.5t53 -129t-53 -129t-131 -53.5q-76 0 -129 53.5t-53 129z" />
    <glyph glyph-name="OE" unicode="&#x152;" horiz-adv-x="2174" 
d="M37 682q0 313 198.5 508.5t501.5 195.5q217 0 340 -94v74h1037v-360h-623v-136h608v-360h-608v-150h623v-360h-1037v74q-125 -98 -340 -99q-303 0 -501.5 197t-198.5 510zM457 682q0 -147 93 -244.5t251 -97.5q90 0 163.5 38.5t112.5 106.5v396q-82 141 -276 141
q-158 0 -251 -96.5t-93 -243.5z" />
    <glyph glyph-name="oe" unicode="&#x153;" horiz-adv-x="1845" 
d="M35 496q0 217 150.5 367.5t404.5 150.5q195 0 364 -158q150 158 353 158q223 0 368.5 -150.5t145.5 -406.5v-76h-672q61 -127 223 -127q125 0 209 70l160 -226q-68 -57 -177.5 -90t-191.5 -33q-158 0 -249 40t-171 116q-156 -156 -362 -156q-254 0 -404.5 152t-150.5 369
zM414 496q0 -94 49 -145.5t127 -51.5t128 51t50 145.5t-50 143.5t-128 49t-127 -50t-49 -142zM1145 614h325q-29 121 -163 121q-131 0 -162 -121z" />
    <glyph glyph-name="Ydieresis" unicode="&#x178;" horiz-adv-x="1359" 
d="M-37 1366h465l254 -461l250 461h465l-508 -823v-543h-414v543zM279 1628q0 76 53 129t129 53t129 -53t53 -129t-53 -129t-129 -53t-129 53t-53 129zM721 1628q0 76 53 129t129 53q78 0 131 -53t53 -129t-53 -129t-131 -53q-76 0 -129 53t-53 129z" />
    <glyph glyph-name="circumflex" unicode="&#x2c6;" horiz-adv-x="686" 
d="M0 1139l180 295h320l186 -295h-215l-131 149l-125 -149h-215z" />
    <glyph glyph-name="tilde" unicode="&#x2dc;" horiz-adv-x="698" 
d="M0 1147q0 274 242 274q72 0 139.5 -44t85.5 -44q49 0 49 76h182q1 -274 -241 -274q-72 0 -139.5 44t-86.5 44q-49 0 -49 -76h-182z" />
    <glyph glyph-name="uni2000" unicode="&#x2000;" horiz-adv-x="939" 
 />
    <glyph glyph-name="uni2001" unicode="&#x2001;" horiz-adv-x="1878" 
 />
    <glyph glyph-name="uni2002" unicode="&#x2002;" horiz-adv-x="939" 
 />
    <glyph glyph-name="uni2003" unicode="&#x2003;" horiz-adv-x="1878" 
 />
    <glyph glyph-name="uni2004" unicode="&#x2004;" horiz-adv-x="626" 
 />
    <glyph glyph-name="uni2005" unicode="&#x2005;" horiz-adv-x="469" 
 />
    <glyph glyph-name="uni2006" unicode="&#x2006;" horiz-adv-x="313" 
 />
    <glyph glyph-name="uni2007" unicode="&#x2007;" horiz-adv-x="313" 
 />
    <glyph glyph-name="uni2008" unicode="&#x2008;" horiz-adv-x="234" 
 />
    <glyph glyph-name="uni2009" unicode="&#x2009;" horiz-adv-x="375" 
 />
    <glyph glyph-name="uni200A" unicode="&#x200a;" horiz-adv-x="104" 
 />
    <glyph glyph-name="uni2010" unicode="&#x2010;" horiz-adv-x="614" 
d="M61 342v307h492v-307h-492z" />
    <glyph glyph-name="uni2011" unicode="&#x2011;" horiz-adv-x="614" 
d="M61 342v307h492v-307h-492z" />
    <glyph glyph-name="figuredash" unicode="&#x2012;" horiz-adv-x="614" 
d="M61 342v307h492v-307h-492z" />
    <glyph glyph-name="endash" unicode="&#x2013;" horiz-adv-x="1214" 
d="M61 342v307h1092v-307h-1092z" />
    <glyph glyph-name="emdash" unicode="&#x2014;" horiz-adv-x="1705" 
d="M61 342v307h1584v-307h-1584z" />
    <glyph glyph-name="quoteleft" unicode="&#x2018;" horiz-adv-x="575" 
d="M61 938q0 270 256 451l150 -121q-51 -23 -109.5 -82.5t-76.5 -114.5q20 8 53 8q76 0 127 -53t51 -137q0 -88 -63.5 -151.5t-149.5 -63.5q-98 0 -168 71.5t-70 192.5z" />
    <glyph glyph-name="quoteright" unicode="&#x2019;" horiz-adv-x="575" 
d="M70 1171q0 88 63.5 151.5t149.5 63.5q98 0 167.5 -71.5t69.5 -192.5q0 -270 -256 -450l-149 121q51 23 109.5 82t76.5 114q-20 -8 -53 -8q-76 0 -127 53t-51 137z" />
    <glyph glyph-name="quotesinglbase" unicode="&#x201a;" horiz-adv-x="575" 
d="M70 199q0 88 63.5 151.5t149.5 63.5q98 0 167.5 -71.5t69.5 -192.5q0 -270 -256 -451l-149 121q51 23 109.5 82t76.5 114q-20 -8 -53 -8q-76 0 -127 53.5t-51 137.5z" />
    <glyph glyph-name="quotedblleft" unicode="&#x201c;" horiz-adv-x="1081" 
d="M53 938q0 270 256 451l150 -121q-51 -23 -109.5 -82.5t-77.5 -114.5q20 8 54 8q76 0 127 -53t51 -137q0 -88 -63.5 -151.5t-149.5 -63.5q-98 0 -168 71.5t-70 192.5zM559 938q0 270 256 451l150 -121q-51 -23 -109.5 -82.5t-77.5 -114.5q20 8 53 8q76 0 127.5 -53
t51.5 -137q0 -88 -63.5 -151.5t-149.5 -63.5q-98 0 -168 71.5t-70 192.5z" />
    <glyph glyph-name="quotedblright" unicode="&#x201d;" horiz-adv-x="1081" 
d="M70 1171q0 88 63.5 151.5t149.5 63.5q98 0 167.5 -71.5t69.5 -192.5q0 -270 -256 -450l-149 121q51 23 109.5 82t76.5 114q-20 -8 -53 -8q-76 0 -127 53t-51 137zM575 1171q0 88 63.5 151.5t149.5 63.5q98 0 168 -71.5t70 -192.5q0 -270 -256 -450l-149 121q51 23 109 82
t77 114q-20 -8 -53 -8q-76 0 -127.5 53t-51.5 137z" />
    <glyph glyph-name="quotedblbase" unicode="&#x201e;" horiz-adv-x="1081" 
d="M70 199q0 88 63.5 151.5t149.5 63.5q98 0 167.5 -71.5t69.5 -192.5q0 -270 -256 -451l-149 121q51 23 109.5 82t76.5 114q-20 -8 -53 -8q-76 0 -127 53.5t-51 137.5zM575 199q0 88 63.5 151.5t149.5 63.5q98 0 168 -71.5t70 -192.5q0 -270 -256 -451l-149 121
q51 23 109 82t77 114q-20 -8 -53 -8q-76 0 -127.5 53.5t-51.5 137.5z" />
    <glyph glyph-name="bullet" unicode="&#x2022;" horiz-adv-x="733" 
d="M102 496q0 111 78 188.5t188.5 77.5t188.5 -77.5t78 -188.5q0 -109 -78 -187t-188.5 -78t-188.5 78t-78 187z" />
    <glyph glyph-name="ellipsis" unicode="&#x2026;" horiz-adv-x="1732" 
d="M72 195q0 90 64.5 154.5t152.5 64.5t152.5 -64.5t64.5 -154.5q0 -88 -64.5 -153t-152.5 -65t-152.5 64.5t-64.5 153.5zM649 195q0 90 64.5 154.5t152.5 64.5t152.5 -64.5t64.5 -154.5q0 -88 -64.5 -153t-152.5 -65t-152.5 64.5t-64.5 153.5zM1227 195q0 90 64.5 154.5
t152.5 64.5t152.5 -64.5t64.5 -154.5q0 -88 -64.5 -153t-152.5 -65t-152.5 64.5t-64.5 153.5z" />
    <glyph glyph-name="uni202F" unicode="&#x202f;" horiz-adv-x="375" 
 />
    <glyph glyph-name="guilsinglleft" unicode="&#x2039;" horiz-adv-x="778" 
d="M61 498l328 362h328l-328 -362l328 -369h-328z" />
    <glyph glyph-name="guilsinglright" unicode="&#x203a;" horiz-adv-x="778" 
d="M61 129l328 369l-328 362h328l328 -362l-328 -369h-328z" />
    <glyph glyph-name="uni205F" unicode="&#x205f;" horiz-adv-x="469" 
 />
    <glyph glyph-name="Euro" unicode="&#x20ac;" horiz-adv-x="1478" 
d="M25 446v195h63v41q0 31 2 47h-65v195h102q74 213 266.5 339t446.5 126q246 0 396 -115t224 -283l-356 -166q-27 82 -100.5 140.5t-163.5 58.5q-147 0 -242 -100h365v-195h-453q-2 -16 -2 -47q0 -29 2 -41h453v-195h-371q96 -106 248 -106q90 0 163.5 58.5t100.5 140.5
l356 -164q-33 -76 -82 -140.5t-122.5 -126t-181 -97.5t-234.5 -36q-256 0 -449.5 127t-265.5 344h-100z" />
    <glyph glyph-name="trademark" unicode="&#x2122;" horiz-adv-x="929" 
d="M35 1313v53h311v-53h-127v-398h-57v398h-127zM420 915v451h88l131 -328l131 328h88v-451h-57v373l-154 -373h-16l-154 373v-373h-57z" />
    <glyph glyph-name="uniE000" unicode="&#xe000;" horiz-adv-x="990" 
d="M0 990h990v-990h-990v990z" />
    <glyph glyph-name="uniFB01" unicode="&#xfb01;" horiz-adv-x="1333" 
d="M14 670v319h164v45q0 154 106.5 253t270.5 99q137 0 229 -49l-67 -250q-37 27 -82 27q-37 0 -62.5 -23.5t-25.5 -56.5v-45h201v-319h-201v-670h-369v670h-164zM840 1268q0 86 60.5 146.5t146.5 60.5t146 -60.5t60 -146.5t-60 -146.5t-146 -60.5t-146.5 60.5t-60.5 146.5z
M862 0v989h369v-989h-369z" />
    <glyph glyph-name="uniFB02" unicode="&#xfb02;" horiz-adv-x="1333" 
d="M14 670v319h164v45q0 154 106.5 253t270.5 99q137 0 229 -49l-67 -250q-37 27 -82 27q-37 0 -62.5 -23.5t-25.5 -56.5v-45h201v-319h-201v-670h-369v670h-164zM862 0v1366h369v-1366h-369z" />
    <glyph glyph-name="uniFB03" unicode="&#xfb03;" horiz-adv-x="2093" 
d="M14 670v319h164v45q0 156 106.5 254t270.5 98q209 0 309 -106l-133 -205q-33 39 -92 39q-37 0 -64.5 -22.5t-27.5 -57.5v-45h201v-319h-201v-670h-369v670h-164zM774 670v319h164v45q0 154 106.5 253t270.5 99q137 0 229 -49l-67 -250q-37 27 -82 27q-37 0 -62.5 -23.5
t-25.5 -56.5v-45h200v-319h-200v-670h-369v670h-164zM1599 1268q0 86 60.5 146.5t146.5 60.5t146.5 -60.5t60.5 -146.5t-60.5 -146.5t-146.5 -60.5t-146.5 60.5t-60.5 146.5zM1622 0v989h369v-989h-369z" />
    <glyph glyph-name="uniFB04" unicode="&#xfb04;" horiz-adv-x="2093" 
d="M14 670v319h164v45q0 156 106.5 254t270.5 98q209 0 309 -106l-133 -205q-33 39 -92 39q-37 0 -64.5 -22.5t-27.5 -57.5v-45h201v-319h-201v-670h-369v670h-164zM774 670v319h164v45q0 154 106.5 253t270.5 99q137 0 229 -49l-67 -250q-37 27 -82 27q-37 0 -62.5 -23.5
t-25.5 -56.5v-45h200v-319h-200v-670h-369v670h-164zM1622 0v1366h369v-1366h-369z" />
    <hkern g1="A,Agrave,Aacute,Acircumflex,Atilde,Adieresis,Aring"
	g2="J"
	k="-61" />
    <hkern g1="A,Agrave,Aacute,Acircumflex,Atilde,Adieresis,Aring"
	g2="T"
	k="123" />
    <hkern g1="A,Agrave,Aacute,Acircumflex,Atilde,Adieresis,Aring"
	g2="U,Ugrave,Uacute,Ucircumflex,Udieresis"
	k="82" />
    <hkern g1="A,Agrave,Aacute,Acircumflex,Atilde,Adieresis,Aring"
	g2="C,G,O,Q,Ccedilla,Ograve,Oacute,Ocircumflex,Otilde,Odieresis,Oslash,OE"
	k="61" />
    <hkern g1="A,Agrave,Aacute,Acircumflex,Atilde,Adieresis,Aring"
	g2="V"
	k="82" />
    <hkern g1="A,Agrave,Aacute,Acircumflex,Atilde,Adieresis,Aring"
	g2="W"
	k="82" />
    <hkern g1="A,Agrave,Aacute,Acircumflex,Atilde,Adieresis,Aring"
	g2="Y,Yacute,Ydieresis"
	k="143" />
    <hkern g1="A,Agrave,Aacute,Acircumflex,Atilde,Adieresis,Aring"
	g2="question"
	k="143" />
    <hkern g1="A,Agrave,Aacute,Acircumflex,Atilde,Adieresis,Aring"
	g2="asterisk"
	k="164" />
    <hkern g1="A,Agrave,Aacute,Acircumflex,Atilde,Adieresis,Aring"
	g2="quotedbl,quotesingle,registered,quoteleft,quoteright,quotedblleft,quotedblright,trademark"
	k="184" />
    <hkern g1="A,Agrave,Aacute,Acircumflex,Atilde,Adieresis,Aring"
	g2="f"
	k="61" />
    <hkern g1="A,Agrave,Aacute,Acircumflex,Atilde,Adieresis,Aring"
	g2="t"
	k="72" />
    <hkern g1="A,Agrave,Aacute,Acircumflex,Atilde,Adieresis,Aring"
	g2="u"
	k="31" />
    <hkern g1="A,Agrave,Aacute,Acircumflex,Atilde,Adieresis,Aring"
	g2="v"
	k="41" />
    <hkern g1="A,Agrave,Aacute,Acircumflex,Atilde,Adieresis,Aring"
	g2="w"
	k="20" />
    <hkern g1="A,Agrave,Aacute,Acircumflex,Atilde,Adieresis,Aring"
	g2="y,yacute,ydieresis"
	k="41" />
    <hkern g1="B"
	g2="T"
	k="20" />
    <hkern g1="B"
	g2="V"
	k="41" />
    <hkern g1="B"
	g2="W"
	k="20" />
    <hkern g1="B"
	g2="Y,Yacute,Ydieresis"
	k="61" />
    <hkern g1="B"
	g2="quotedbl,quotesingle,registered,quoteleft,quoteright,quotedblleft,quotedblright,trademark"
	k="20" />
    <hkern g1="C,Ccedilla"
	g2="V"
	k="10" />
    <hkern g1="C,Ccedilla"
	g2="W"
	k="20" />
    <hkern g1="C,Ccedilla"
	g2="Y,Yacute,Ydieresis"
	k="61" />
    <hkern g1="C,Ccedilla"
	g2="question"
	k="20" />
    <hkern g1="C,Ccedilla"
	g2="A,Agrave,Aacute,Acircumflex,Atilde,Adieresis,Aring,AE"
	k="20" />
    <hkern g1="D,O,Q,Eth,Ograve,Oacute,Ocircumflex,Otilde,Odieresis,Oslash,Thorn"
	g2="J"
	k="41" />
    <hkern g1="D,O,Q,Eth,Ograve,Oacute,Ocircumflex,Otilde,Odieresis,Oslash,Thorn"
	g2="T"
	k="41" />
    <hkern g1="D,O,Q,Eth,Ograve,Oacute,Ocircumflex,Otilde,Odieresis,Oslash,Thorn"
	g2="V"
	k="41" />
    <hkern g1="D,O,Q,Eth,Ograve,Oacute,Ocircumflex,Otilde,Odieresis,Oslash,Thorn"
	g2="W"
	k="41" />
    <hkern g1="D,O,Q,Eth,Ograve,Oacute,Ocircumflex,Otilde,Odieresis,Oslash,Thorn"
	g2="Y,Yacute,Ydieresis"
	k="82" />
    <hkern g1="D,O,Q,Eth,Ograve,Oacute,Ocircumflex,Otilde,Odieresis,Oslash,Thorn"
	g2="question"
	k="61" />
    <hkern g1="D,O,Q,Eth,Ograve,Oacute,Ocircumflex,Otilde,Odieresis,Oslash,Thorn"
	g2="quotedbl,quotesingle,registered,quoteleft,quoteright,quotedblleft,quotedblright,trademark"
	k="20" />
    <hkern g1="D,O,Q,Eth,Ograve,Oacute,Ocircumflex,Otilde,Odieresis,Oslash,Thorn"
	g2="A,Agrave,Aacute,Acircumflex,Atilde,Adieresis,Aring,AE"
	k="61" />
    <hkern g1="D,O,Q,Eth,Ograve,Oacute,Ocircumflex,Otilde,Odieresis,Oslash,Thorn"
	g2="X"
	k="61" />
    <hkern g1="D,O,Q,Eth,Ograve,Oacute,Ocircumflex,Otilde,Odieresis,Oslash,Thorn"
	g2="Z"
	k="20" />
    <hkern g1="D,O,Q,Eth,Ograve,Oacute,Ocircumflex,Otilde,Odieresis,Oslash,Thorn"
	g2="comma,period,quotesinglbase,quotedblbase,ellipsis"
	k="41" />
    <hkern g1="F"
	g2="A,Agrave,Aacute,Acircumflex,Atilde,Adieresis,Aring,AE"
	k="102" />
    <hkern g1="F"
	g2="J"
	k="164" />
    <hkern g1="F"
	g2="ampersand"
	k="41" />
    <hkern g1="F"
	g2="comma,period,quotesinglbase,quotedblbase,ellipsis"
	k="102" />
    <hkern g1="G"
	g2="A,Agrave,Aacute,Acircumflex,Atilde,Adieresis,Aring,AE"
	k="20" />
    <hkern g1="G"
	g2="X"
	k="20" />
    <hkern g1="G"
	g2="T"
	k="20" />
    <hkern g1="G"
	g2="V"
	k="41" />
    <hkern g1="G"
	g2="W"
	k="20" />
    <hkern g1="G"
	g2="Y,Yacute,Ydieresis"
	k="61" />
    <hkern g1="G"
	g2="question"
	k="41" />
    <hkern g1="K"
	g2="C,G,O,Q,Ccedilla,Ograve,Oacute,Ocircumflex,Otilde,Odieresis,Oslash,OE"
	k="82" />
    <hkern g1="K"
	g2="a,ae"
	k="20" />
    <hkern g1="K"
	g2="c,d,e,g,o,q,ccedilla,eth,oslash,oe"
	k="41" />
    <hkern g1="K"
	g2="f"
	k="82" />
    <hkern g1="K"
	g2="t"
	k="123" />
    <hkern g1="K"
	g2="u"
	k="41" />
    <hkern g1="K"
	g2="v"
	k="123" />
    <hkern g1="K"
	g2="w"
	k="82" />
    <hkern g1="K"
	g2="x"
	k="82" />
    <hkern g1="K"
	g2="y,yacute,ydieresis"
	k="123" />
    <hkern g1="K"
	g2="hyphen,endash,emdash"
	k="102" />
    <hkern g1="L"
	g2="T"
	k="205" />
    <hkern g1="L"
	g2="V"
	k="184" />
    <hkern g1="L"
	g2="W"
	k="164" />
    <hkern g1="L"
	g2="Y,Yacute,Ydieresis"
	k="266" />
    <hkern g1="L"
	g2="question"
	k="205" />
    <hkern g1="L"
	g2="quotedbl,quotesingle,registered,quoteleft,quoteright,quotedblleft,quotedblright,trademark"
	k="307" />
    <hkern g1="L"
	g2="C,G,O,Q,Ccedilla,Ograve,Oacute,Ocircumflex,Otilde,Odieresis,Oslash,OE"
	k="41" />
    <hkern g1="L"
	g2="t"
	k="82" />
    <hkern g1="L"
	g2="v"
	k="102" />
    <hkern g1="L"
	g2="w"
	k="61" />
    <hkern g1="L"
	g2="y,yacute,ydieresis"
	k="102" />
    <hkern g1="L"
	g2="U,Ugrave,Uacute,Ucircumflex,Udieresis"
	k="41" />
    <hkern g1="L"
	g2="asterisk"
	k="328" />
    <hkern g1="P"
	g2="A,Agrave,Aacute,Acircumflex,Atilde,Adieresis,Aring,AE"
	k="143" />
    <hkern g1="P"
	g2="J"
	k="266" />
    <hkern g1="P"
	g2="X"
	k="61" />
    <hkern g1="P"
	g2="Y,Yacute,Ydieresis"
	k="20" />
    <hkern g1="P"
	g2="ampersand"
	k="82" />
    <hkern g1="P"
	g2="comma,period,quotesinglbase,quotedblbase,ellipsis"
	k="164" />
    <hkern g1="P"
	g2="a,ae"
	k="41" />
    <hkern g1="P"
	g2="c,d,e,g,o,q,ccedilla,eth,oslash,oe"
	k="41" />
    <hkern g1="P"
	g2="hyphen,endash,emdash"
	k="41" />
    <hkern g1="R"
	g2="Y,Yacute,Ydieresis"
	k="41" />
    <hkern g1="R"
	g2="ampersand"
	k="20" />
    <hkern g1="R"
	g2="a,ae"
	k="41" />
    <hkern g1="R"
	g2="c,d,e,g,o,q,ccedilla,eth,oslash,oe"
	k="61" />
    <hkern g1="R"
	g2="T"
	k="20" />
    <hkern g1="R"
	g2="V"
	k="20" />
    <hkern g1="R"
	g2="quotedbl,quotesingle,registered,quoteleft,quoteright,quotedblleft,quotedblright,trademark"
	k="20" />
    <hkern g1="R"
	g2="s"
	k="41" />
    <hkern g1="S"
	g2="A,Agrave,Aacute,Acircumflex,Atilde,Adieresis,Aring,AE"
	k="20" />
    <hkern g1="S"
	g2="Y,Yacute,Ydieresis"
	k="20" />
    <hkern g1="S"
	g2="T"
	k="41" />
    <hkern g1="S"
	g2="t"
	k="20" />
    <hkern g1="S"
	g2="v"
	k="41" />
    <hkern g1="S"
	g2="w"
	k="20" />
    <hkern g1="S"
	g2="x"
	k="41" />
    <hkern g1="S"
	g2="y,yacute,ydieresis"
	k="41" />
    <hkern g1="T"
	g2="A,Agrave,Aacute,Acircumflex,Atilde,Adieresis,Aring,AE"
	k="123" />
    <hkern g1="T"
	g2="J"
	k="184" />
    <hkern g1="T"
	g2="ampersand"
	k="102" />
    <hkern g1="T"
	g2="comma,period,quotesinglbase,quotedblbase,ellipsis"
	k="205" />
    <hkern g1="T"
	g2="a,ae"
	k="123" />
    <hkern g1="T"
	g2="c,d,e,g,o,q,ccedilla,eth,oslash,oe"
	k="164" />
    <hkern g1="T"
	g2="hyphen,endash,emdash"
	k="123" />
    <hkern g1="T"
	g2="s"
	k="143" />
    <hkern g1="T"
	g2="x"
	k="20" />
    <hkern g1="T"
	g2="C,G,O,Q,Ccedilla,Ograve,Oacute,Ocircumflex,Otilde,Odieresis,Oslash,OE"
	k="41" />
    <hkern g1="T"
	g2="S"
	k="20" />
    <hkern g1="T"
	g2="colon,semicolon"
	k="102" />
    <hkern g1="T"
	g2="f"
	k="20" />
    <hkern g1="T"
	g2="m,n,p,r,z"
	k="102" />
    <hkern g1="T"
	g2="u"
	k="102" />
    <hkern g1="J,U,Ugrave,Uacute,Ucircumflex,Udieresis"
	g2="A,Agrave,Aacute,Acircumflex,Atilde,Adieresis,Aring,AE"
	k="82" />
    <hkern g1="J,U,Ugrave,Uacute,Ucircumflex,Udieresis"
	g2="J"
	k="82" />
    <hkern g1="J,U,Ugrave,Uacute,Ucircumflex,Udieresis"
	g2="comma,period,quotesinglbase,quotedblbase,ellipsis"
	k="61" />
    <hkern g1="V"
	g2="A,Agrave,Aacute,Acircumflex,Atilde,Adieresis,Aring,AE"
	k="82" />
    <hkern g1="V"
	g2="J"
	k="205" />
    <hkern g1="V"
	g2="ampersand"
	k="102" />
    <hkern g1="V"
	g2="comma,period,quotesinglbase,quotedblbase,ellipsis"
	k="184" />
    <hkern g1="V"
	g2="a,ae"
	k="143" />
    <hkern g1="V"
	g2="c,d,e,g,o,q,ccedilla,eth,oslash,oe"
	k="123" />
    <hkern g1="V"
	g2="s"
	k="123" />
    <hkern g1="V"
	g2="t"
	k="41" />
    <hkern g1="V"
	g2="v"
	k="41" />
    <hkern g1="V"
	g2="w"
	k="41" />
    <hkern g1="V"
	g2="x"
	k="61" />
    <hkern g1="V"
	g2="y,yacute,ydieresis"
	k="41" />
    <hkern g1="V"
	g2="C,G,O,Q,Ccedilla,Ograve,Oacute,Ocircumflex,Otilde,Odieresis,Oslash,OE"
	k="41" />
    <hkern g1="V"
	g2="f"
	k="61" />
    <hkern g1="V"
	g2="m,n,p,r,z"
	k="143" />
    <hkern g1="V"
	g2="u"
	k="143" />
    <hkern g1="V"
	g2="hyphen,endash,emdash"
	k="123" />
    <hkern g1="W"
	g2="hyphen,endash,emdash"
	k="82" />
    <hkern g1="W"
	g2="A,Agrave,Aacute,Acircumflex,Atilde,Adieresis,Aring,AE"
	k="82" />
    <hkern g1="W"
	g2="ampersand"
	k="41" />
    <hkern g1="W"
	g2="C,G,O,Q,Ccedilla,Ograve,Oacute,Ocircumflex,Otilde,Odieresis,Oslash,OE"
	k="41" />
    <hkern g1="W"
	g2="J"
	k="164" />
    <hkern g1="W"
	g2="comma,period,quotesinglbase,quotedblbase,ellipsis"
	k="123" />
    <hkern g1="W"
	g2="a,ae"
	k="82" />
    <hkern g1="W"
	g2="c,d,e,g,o,q,ccedilla,eth,oslash,oe"
	k="82" />
    <hkern g1="W"
	g2="f"
	k="41" />
    <hkern g1="W"
	g2="m,n,p,r,z"
	k="61" />
    <hkern g1="W"
	g2="s"
	k="82" />
    <hkern g1="W"
	g2="t"
	k="41" />
    <hkern g1="W"
	g2="u"
	k="61" />
    <hkern g1="W"
	g2="x"
	k="61" />
    <hkern g1="W"
	g2="v"
	k="20" />
    <hkern g1="W"
	g2="y,yacute,ydieresis"
	k="20" />
    <hkern g1="Y,Yacute,Ydieresis"
	g2="hyphen,endash,emdash"
	k="266" />
    <hkern g1="Y,Yacute,Ydieresis"
	g2="A,Agrave,Aacute,Acircumflex,Atilde,Adieresis,Aring,AE"
	k="143" />
    <hkern g1="Y,Yacute,Ydieresis"
	g2="ampersand"
	k="123" />
    <hkern g1="Y,Yacute,Ydieresis"
	g2="C,G,O,Q,Ccedilla,Ograve,Oacute,Ocircumflex,Otilde,Odieresis,Oslash,OE"
	k="82" />
    <hkern g1="Y,Yacute,Ydieresis"
	g2="J"
	k="246" />
    <hkern g1="Y,Yacute,Ydieresis"
	g2="comma,period,quotesinglbase,quotedblbase,ellipsis"
	k="184" />
    <hkern g1="Y,Yacute,Ydieresis"
	g2="a,ae"
	k="205" />
    <hkern g1="Y,Yacute,Ydieresis"
	g2="c,d,e,g,o,q,ccedilla,eth,oslash,oe"
	k="246" />
    <hkern g1="Y,Yacute,Ydieresis"
	g2="f"
	k="143" />
    <hkern g1="Y,Yacute,Ydieresis"
	g2="m,n,p,r,z"
	k="184" />
    <hkern g1="Y,Yacute,Ydieresis"
	g2="s"
	k="205" />
    <hkern g1="Y,Yacute,Ydieresis"
	g2="t"
	k="82" />
    <hkern g1="Y,Yacute,Ydieresis"
	g2="u"
	k="184" />
    <hkern g1="Y,Yacute,Ydieresis"
	g2="x"
	k="164" />
    <hkern g1="Y,Yacute,Ydieresis"
	g2="v"
	k="123" />
    <hkern g1="Y,Yacute,Ydieresis"
	g2="y,yacute,ydieresis"
	k="123" />
    <hkern g1="Y,Yacute,Ydieresis"
	g2="S"
	k="41" />
    <hkern g1="Y,Yacute,Ydieresis"
	g2="colon,semicolon"
	k="164" />
    <hkern g1="Y,Yacute,Ydieresis"
	g2="w"
	k="123" />
    <hkern g1="Z"
	g2="C,G,O,Q,Ccedilla,Ograve,Oacute,Ocircumflex,Otilde,Odieresis,Oslash,OE"
	k="20" />
    <hkern g1="a,h,m,n"
	g2="question"
	k="102" />
    <hkern g1="a,h,m,n"
	g2="quotedbl,quotesingle,registered,quoteleft,quoteright,quotedblleft,quotedblright,trademark"
	k="41" />
    <hkern g1="a,h,m,n"
	g2="Y,Yacute,Ydieresis"
	k="225" />
    <hkern g1="a,h,m,n"
	g2="T"
	k="164" />
    <hkern g1="a,h,m,n"
	g2="V"
	k="164" />
    <hkern g1="a,h,m,n"
	g2="W"
	k="102" />
    <hkern g1="ampersand"
	g2="Y,Yacute,Ydieresis"
	k="143" />
    <hkern g1="ampersand"
	g2="T"
	k="123" />
    <hkern g1="ampersand"
	g2="V"
	k="102" />
    <hkern g1="ampersand"
	g2="W"
	k="41" />
    <hkern g1="asterisk"
	g2="A,Agrave,Aacute,Acircumflex,Atilde,Adieresis,Aring,AE"
	k="164" />
    <hkern g1="asterisk"
	g2="J"
	k="266" />
    <hkern g1="b,o,p,oslash,thorn"
	g2="x"
	k="61" />
    <hkern g1="b,o,p,oslash,thorn"
	g2="question"
	k="123" />
    <hkern g1="b,o,p,oslash,thorn"
	g2="quotedbl,quotesingle,registered,quoteleft,quoteright,quotedblleft,quotedblright,trademark"
	k="20" />
    <hkern g1="b,o,p,oslash,thorn"
	g2="Y,Yacute,Ydieresis"
	k="225" />
    <hkern g1="b,o,p,oslash,thorn"
	g2="T"
	k="164" />
    <hkern g1="b,o,p,oslash,thorn"
	g2="V"
	k="123" />
    <hkern g1="b,o,p,oslash,thorn"
	g2="W"
	k="82" />
    <hkern g1="c,cent,ccedilla"
	g2="T"
	k="123" />
    <hkern g1="c,cent,ccedilla"
	g2="V"
	k="102" />
    <hkern g1="c,cent,ccedilla"
	g2="W"
	k="61" />
    <hkern g1="c,cent,ccedilla"
	g2="Y,Yacute,Ydieresis"
	k="143" />
    <hkern g1="c,cent,ccedilla"
	g2="question"
	k="61" />
    <hkern g1="c,cent,ccedilla"
	g2="quotedbl,quotesingle,registered,quoteleft,quoteright,quotedblleft,quotedblright,trademark"
	k="20" />
    <hkern g1="colon,semicolon"
	g2="T"
	k="102" />
    <hkern g1="colon,semicolon"
	g2="Y,Yacute,Ydieresis"
	k="164" />
    <hkern g1="e,ae,oe"
	g2="T"
	k="164" />
    <hkern g1="e,ae,oe"
	g2="V"
	k="123" />
    <hkern g1="e,ae,oe"
	g2="W"
	k="82" />
    <hkern g1="e,ae,oe"
	g2="Y,Yacute,Ydieresis"
	k="225" />
    <hkern g1="e,ae,oe"
	g2="question"
	k="102" />
    <hkern g1="e,ae,oe"
	g2="quotedbl,quotesingle,registered,quoteleft,quoteright,quotedblleft,quotedblright,trademark"
	k="20" />
    <hkern g1="e,ae,oe"
	g2="asterisk"
	k="20" />
    <hkern g1="f"
	g2="T"
	k="-82" />
    <hkern g1="f"
	g2="V"
	k="-143" />
    <hkern g1="f"
	g2="W"
	k="-143" />
    <hkern g1="f"
	g2="X"
	k="-82" />
    <hkern g1="f"
	g2="Y,Yacute,Ydieresis"
	k="-143" />
    <hkern g1="f"
	g2="Z"
	k="-82" />
    <hkern g1="f"
	g2="question"
	k="-102" />
    <hkern g1="f"
	g2="quotedbl,quotesingle,registered,quoteleft,quoteright,quotedblleft,quotedblright,trademark"
	k="-123" />
    <hkern g1="f"
	g2="asterisk"
	k="-123" />
    <hkern g1="f"
	g2="ampersand"
	k="20" />
    <hkern g1="f"
	g2="comma,period,quotesinglbase,quotedblbase,ellipsis"
	k="102" />
    <hkern g1="f"
	g2="parenright,bracketright,braceright"
	k="-123" />
    <hkern g1="f"
	g2="exclam,B,D,E,F,H,I,K,L,M,N,P,R,Egrave,Eacute,Ecircumflex,Edieresis,Igrave,Iacute,Icircumflex,Idieresis,Eth,Ntilde"
	k="-82" />
    <hkern g1="f"
	g2="S"
	k="-61" />
    <hkern g1="f"
	g2="U,Ugrave,Uacute,Ucircumflex,Udieresis"
	k="-82" />
    <hkern g1="g,q"
	g2="T"
	k="102" />
    <hkern g1="g,q"
	g2="V"
	k="143" />
    <hkern g1="g,q"
	g2="W"
	k="61" />
    <hkern g1="g,q"
	g2="Y,Yacute,Ydieresis"
	k="184" />
    <hkern g1="g,q"
	g2="question"
	k="61" />
    <hkern g1="g,q"
	g2="j"
	k="-123" />
    <hkern g1="hyphen,endash,emdash"
	g2="V"
	k="123" />
    <hkern g1="hyphen,endash,emdash"
	g2="W"
	k="82" />
    <hkern g1="hyphen,endash,emdash"
	g2="X"
	k="102" />
    <hkern g1="hyphen,endash,emdash"
	g2="Y,Yacute,Ydieresis"
	k="266" />
    <hkern g1="k"
	g2="T"
	k="41" />
    <hkern g1="k"
	g2="V"
	k="61" />
    <hkern g1="k"
	g2="W"
	k="61" />
    <hkern g1="k"
	g2="Y,Yacute,Ydieresis"
	k="164" />
    <hkern g1="k"
	g2="c,d,e,g,o,q,ccedilla,eth,oslash,oe"
	k="20" />
    <hkern g1="k"
	g2="bullet"
	k="41" />
    <hkern g1="k"
	g2="hyphen,endash,emdash"
	k="41" />
    <hkern g1="comma,period,quotesinglbase,quotedblbase,ellipsis"
	g2="T"
	k="205" />
    <hkern g1="comma,period,quotesinglbase,quotedblbase,ellipsis"
	g2="V"
	k="164" />
    <hkern g1="comma,period,quotesinglbase,quotedblbase,ellipsis"
	g2="W"
	k="123" />
    <hkern g1="comma,period,quotesinglbase,quotedblbase,ellipsis"
	g2="Y,Yacute,Ydieresis"
	k="184" />
    <hkern g1="comma,period,quotesinglbase,quotedblbase,ellipsis"
	g2="quotedbl,quotesingle,registered,quoteleft,quoteright,quotedblleft,quotedblright,trademark"
	k="184" />
    <hkern g1="comma,period,quotesinglbase,quotedblbase,ellipsis"
	g2="U,Ugrave,Uacute,Ucircumflex,Udieresis"
	k="61" />
    <hkern g1="comma,period,quotesinglbase,quotedblbase,ellipsis"
	g2="j"
	k="-82" />
    <hkern g1="comma,period,quotesinglbase,quotedblbase,ellipsis"
	g2="f"
	k="61" />
    <hkern g1="comma,period,quotesinglbase,quotedblbase,ellipsis"
	g2="t"
	k="61" />
    <hkern g1="comma,period,quotesinglbase,quotedblbase,ellipsis"
	g2="v"
	k="123" />
    <hkern g1="comma,period,quotesinglbase,quotedblbase,ellipsis"
	g2="w"
	k="61" />
    <hkern g1="comma,period,quotesinglbase,quotedblbase,ellipsis"
	g2="y,yacute,ydieresis"
	k="102" />
    <hkern g1="comma,period,quotesinglbase,quotedblbase,ellipsis"
	g2="one"
	k="246" />
    <hkern g1="comma,period,quotesinglbase,quotedblbase,ellipsis"
	g2="zero,six"
	k="20" />
    <hkern g1="comma,period,quotesinglbase,quotedblbase,ellipsis"
	g2="seven"
	k="164" />
    <hkern g1="questiondown"
	g2="j"
	k="-328" />
    <hkern g1="quotedbl,quotesingle,quoteleft,quoteright,quotedblleft,quotedblright"
	g2="A,Agrave,Aacute,Acircumflex,Atilde,Adieresis,Aring,AE"
	k="184" />
    <hkern g1="quotedbl,quotesingle,quoteleft,quoteright,quotedblleft,quotedblright"
	g2="J"
	k="246" />
    <hkern g1="quotedbl,quotesingle,quoteleft,quoteright,quotedblleft,quotedblright"
	g2="comma,period,quotesinglbase,quotedblbase,ellipsis"
	k="184" />
    <hkern g1="quotedbl,quotesingle,quoteleft,quoteright,quotedblleft,quotedblright"
	g2="C,G,O,Q,Ccedilla,Ograve,Oacute,Ocircumflex,Otilde,Odieresis,Oslash,OE"
	k="20" />
    <hkern g1="quotedbl,quotesingle,quoteleft,quoteright,quotedblleft,quotedblright"
	g2="s"
	k="61" />
    <hkern g1="r"
	g2="comma,period,quotesinglbase,quotedblbase,ellipsis"
	k="184" />
    <hkern g1="r"
	g2="Y,Yacute,Ydieresis"
	k="102" />
    <hkern g1="r"
	g2="T"
	k="41" />
    <hkern g1="r"
	g2="V"
	k="61" />
    <hkern g1="r"
	g2="W"
	k="41" />
    <hkern g1="r"
	g2="X"
	k="61" />
    <hkern g1="s"
	g2="Y,Yacute,Ydieresis"
	k="205" />
    <hkern g1="s"
	g2="T"
	k="123" />
    <hkern g1="s"
	g2="V"
	k="102" />
    <hkern g1="s"
	g2="W"
	k="123" />
    <hkern g1="s"
	g2="X"
	k="20" />
    <hkern g1="s"
	g2="question"
	k="102" />
    <hkern g1="s"
	g2="quotedbl,quotesingle,registered,quoteleft,quoteright,quotedblleft,quotedblright,trademark"
	k="41" />
    <hkern g1="t"
	g2="Y,Yacute,Ydieresis"
	k="82" />
    <hkern g1="t"
	g2="T"
	k="20" />
    <hkern g1="t"
	g2="V"
	k="82" />
    <hkern g1="t"
	g2="W"
	k="41" />
    <hkern g1="u,z"
	g2="Y,Yacute,Ydieresis"
	k="184" />
    <hkern g1="u,z"
	g2="T"
	k="102" />
    <hkern g1="u,z"
	g2="V"
	k="143" />
    <hkern g1="u,z"
	g2="W"
	k="61" />
    <hkern g1="u,z"
	g2="question"
	k="61" />
    <hkern g1="v"
	g2="comma,period,quotesinglbase,quotedblbase,ellipsis"
	k="123" />
    <hkern g1="v"
	g2="Y,Yacute,Ydieresis"
	k="123" />
    <hkern g1="v"
	g2="V"
	k="41" />
    <hkern g1="v"
	g2="W"
	k="20" />
    <hkern g1="v"
	g2="X"
	k="61" />
    <hkern g1="v"
	g2="A,Agrave,Aacute,Acircumflex,Atilde,Adieresis,Aring,AE"
	k="41" />
    <hkern g1="w"
	g2="comma,period,quotesinglbase,quotedblbase,ellipsis"
	k="61" />
    <hkern g1="w"
	g2="Y,Yacute,Ydieresis"
	k="123" />
    <hkern g1="w"
	g2="V"
	k="41" />
    <hkern g1="w"
	g2="X"
	k="61" />
    <hkern g1="w"
	g2="A,Agrave,Aacute,Acircumflex,Atilde,Adieresis,Aring,AE"
	k="20" />
    <hkern g1="y,yacute,ydieresis"
	g2="comma,period,quotesinglbase,quotedblbase,ellipsis"
	k="102" />
    <hkern g1="y,yacute,ydieresis"
	g2="Y,Yacute,Ydieresis"
	k="123" />
    <hkern g1="y,yacute,ydieresis"
	g2="V"
	k="41" />
    <hkern g1="y,yacute,ydieresis"
	g2="W"
	k="20" />
    <hkern g1="y,yacute,ydieresis"
	g2="X"
	k="61" />
    <hkern g1="y,yacute,ydieresis"
	g2="question"
	k="20" />
    <hkern g1="y,yacute,ydieresis"
	g2="A,Agrave,Aacute,Acircumflex,Atilde,Adieresis,Aring,AE"
	k="41" />
    <hkern g1="X"
	g2="y,yacute,ydieresis"
	k="61" />
    <hkern g1="X"
	g2="w"
	k="61" />
    <hkern g1="X"
	g2="v"
	k="61" />
    <hkern g1="X"
	g2="f"
	k="61" />
    <hkern g1="X"
	g2="t"
	k="61" />
    <hkern g1="X"
	g2="hyphen,endash,emdash"
	k="102" />
    <hkern g1="X"
	g2="C,G,O,Q,Ccedilla,Ograve,Oacute,Ocircumflex,Otilde,Odieresis,Oslash,OE"
	k="61" />
    <hkern g1="zero,nine"
	g2="comma,period,quotesinglbase,quotedblbase,ellipsis"
	k="20" />
    <hkern g1="seven"
	g2="comma,period,quotesinglbase,quotedblbase,ellipsis"
	k="184" />
    <hkern g1="x"
	g2="Y,Yacute,Ydieresis"
	k="164" />
    <hkern g1="x"
	g2="T"
	k="20" />
    <hkern g1="x"
	g2="V"
	k="61" />
    <hkern g1="x"
	g2="W"
	k="61" />
    <hkern g1="x"
	g2="c,d,e,g,o,q,ccedilla,eth,oslash,oe"
	k="61" />
    <hkern g1="parenleft,bracketleft,braceleft"
	g2="j"
	k="-225" />
  </font>
</defs></svg>
